"서비스구분","서비스ID","대분류명","소분류명","서비스상태","서비스명","결제방법","장소명","서비스대상","바로가기URL","장소X좌표","장소Y좌표","서비스개시시작일시","서비스개시종료일시","접수시작일시","접수종료일시","지역명"
"자체","S191123174639225207","체육시설","축구장","접수중","2020년도 고척스카이돔 야외 축구장(휴일야간)","유료","고척스카이돔","제한없음","http://yeyak.seoul.go.kr/reservation/view.web?rsvsvcid=S191123174639225207","","","2019-12-01 00:00:00.0","2020-12-31 00:00:00.0","2019-12-01 09:00:00.0","2020-12-31 23:59:00.0","구로구"
"자체","S191123165039598692","체육시설","축구장","접수중","2020년도 고척스카이돔 야외 축구장(평일주간)","유료","고척스카이돔","제한없음","http://yeyak.seoul.go.kr/reservation/view.web?rsvsvcid=S191123165039598692","","","2019-12-01 00:00:00.0","2020-12-31 00:00:00.0","2019-12-01 09:00:00.0","2020-12-31 23:59:00.0","구로구"
"자체","S191123170521752007","체육시설","축구장","접수중","2020년도 고척스카이돔 야외 축구장(평일야간)","유료","고척스카이돔","제한없음","http://yeyak.seoul.go.kr/reservation/view.web?rsvsvcid=S191123170521752007","","","2019-12-01 00:00:00.0","2020-12-31 00:00:00.0","2019-12-01 09:00:00.0","2020-12-31 23:59:00.0","구로구"
"자체","S191123172439666363","체육시설","축구장","접수중","2020년도 고척스카이돔 야외 축구장(휴일주간)","유료","고척스카이돔","제한없음","http://yeyak.seoul.go.kr/reservation/view.web?rsvsvcid=S191123172439666363","","","2019-12-01 00:00:00.0","2020-12-31 00:00:00.0","2019-12-01 09:00:00.0","2020-12-31 23:59:00.0","구로구"
"자체","S191125163705692406","체육시설","풋살경기장","접수중","[평일주간] 2020년 고척스카이돔 풋살구장(공통)","유료","고척스카이돔","제한없음","http://yeyak.seoul.go.kr/reservation/view.web?rsvsvcid=S191125163705692406","","","2019-12-01 00:00:00.0","2020-12-31 00:00:00.0","2019-12-01 09:00:00.0","2020-12-31 23:59:00.0","구로구"
"자체","S191125165521364276","체육시설","풋살경기장","접수중","[평일야간] 2020년 고척스카이돔 풋살구장(공통)","유료","고척스카이돔","제한없음","http://yeyak.seoul.go.kr/reservation/view.web?rsvsvcid=S191125165521364276","","","2019-12-01 00:00:00.0","2020-12-31 00:00:00.0","2019-12-01 09:00:00.0","2020-12-31 23:59:00.0","구로구"
"자체","S191125170938199935","체육시설","풋살경기장","접수중","[휴일주간] 2020년 고척스카이돔 풋살구장(공통)","유료","고척스카이돔","제한없음","http://yeyak.seoul.go.kr/reservation/view.web?rsvsvcid=S191125170938199935","","","2019-12-01 00:00:00.0","2020-12-31 00:00:00.0","2019-12-01 09:00:00.0","2020-12-31 23:59:00.0","구로구"
"자체","S191125172627119959","체육시설","풋살경기장","접수중","[휴일야간] 2020년 고척스카이돔 풋살구장(공통)","유료","고척스카이돔","제한없음","http://yeyak.seoul.go.kr/reservation/view.web?rsvsvcid=S191125172627119959","","","2019-12-01 00:00:00.0","2020-12-31 00:00:00.0","2019-12-01 09:00:00.0","2020-12-31 23:59:00.0","구로구"
"자체","S200520110745917236","체육시설","축구장","접수중","계남근린공원 인조잔디 축구장","무료","계남근린공원>인조잔디축구장","어르신","http://yeyak.seoul.go.kr/reservation/view.web?rsvsvcid=S200520110745917236","","","2020-05-20 00:00:00.0","2020-06-30 00:00:00.0","2020-05-20 15:00:00.0","2020-06-21 20:00:00.0","구로구"
"자체","S190522144836251426","체육시설","풋살경기장","접수종료","풋살경기장(구일역 하부)","무료","안양천 체육시설>풋살경기장(구일역 하부)","제한없음","http://yeyak.seoul.go.kr/reservation/view.web?rsvsvcid=S190522144836251426","","","2019-05-27 00:00:00.0","2020-12-31 00:00:00.0","2020-02-13 09:00:00.0","2020-02-27 18:00:00.0","구로구"