"서비스구분","서비스ID","대분류명","소분류명","서비스상태","서비스명","결제방법","장소명","서비스대상","바로가기URL","장소X좌표","장소Y좌표","서비스개시시작일시","서비스개시종료일시","접수시작일시","접수종료일시","지역명"
"자체","S200115103204921837","시설대관","다목적실","접수중","성동구 송정동 자치회관 다목적실","유료","송정동 자치회관","제한없음","http://yeyak.seoul.go.kr/reservation/view.web?rsvsvcid=S200115103204921837","37.554532258632406","127.06956907208924","2020-01-15 00:00:00.0","2020-12-31 00:00:00.0","2020-01-15 09:00:00.0","2020-12-31 18:00:00.0","성동구"
"자체","S200115135615450509","시설대관","회의실","접수중","성동구 송정동 자치회관 회의실","유료","송정동 자치회관","제한없음","http://yeyak.seoul.go.kr/reservation/view.web?rsvsvcid=S200115135615450509","37.554532258632406","127.06956907208924","2020-01-15 00:00:00.0","2020-12-31 00:00:00.0","2020-01-15 09:00:00.0","2020-12-31 18:00:00.0","성동구"
"자체","S200115135757153635","시설대관","기타","접수중","송정동 작은도서관","유료","송정동 자치회관","제한없음","http://yeyak.seoul.go.kr/reservation/view.web?rsvsvcid=S200115135757153635","37.554532258632406","127.06956907208924","2020-01-15 00:00:00.0","2020-12-31 00:00:00.0","2020-01-15 09:00:00.0","2020-12-31 18:00:00.0","성동구"
"자체","S200117102023699481","시설대관","회의실","접수중","성동구 왕십리도선동 나눔방","유료","왕십리도선동 주민센터","제한없음","http://yeyak.seoul.go.kr/reservation/view.web?rsvsvcid=S200117102023699481","37.567873934090784","127.02552709511711","2020-01-17 00:00:00.0","2020-12-31 00:00:00.0","2020-01-17 09:00:00.0","2020-12-25 23:00:00.0","성동구"
"자체","S200117105206206018","시설대관","다목적실","접수중","성동구 왕십리도선동 어울림방","유료","왕십리도선동 주민센터","제한없음","http://yeyak.seoul.go.kr/reservation/view.web?rsvsvcid=S200117105206206018","37.567873934090784","127.02552709511711","2020-01-17 00:00:00.0","2020-12-31 00:00:00.0","2020-01-17 09:00:00.0","2020-12-31 22:00:00.0","성동구"
"자체","S200219174100144672","시설대관","기타","접수중","성동구 왕십리도선동 한땀한땀공방","유료","왕십리도선동 주민센터","제한없음","http://yeyak.seoul.go.kr/reservation/view.web?rsvsvcid=S200219174100144672","37.567873934090784","127.02552709511711","2020-02-19 00:00:00.0","2020-12-31 00:00:00.0","2020-02-19 09:00:00.0","2020-12-31 18:00:00.0","성동구"
"자체","S200117142840210996","시설대관","기타","접수중","성동구 왕십리제2동주민센터 어린이쉼터","유료","왕십리제2동주민센터 어린이쉼터","제한없음(서울시 관련 시민 - 상세정보 확인)","http://yeyak.seoul.go.kr/reservation/view.web?rsvsvcid=S200117142840210996","37.56108284293038","127.03051383519205","2020-01-17 00:00:00.0","2020-12-31 00:00:00.0","2020-01-17 09:00:00.0","2020-12-31 18:59:00.0","성동구"
"자체","S200117171634836426","시설대관","강의실","접수중","성동구 금호2-3가동 자치회관 2층 강의실","유료","금호2.3가동 주민센터","제한없음","http://yeyak.seoul.go.kr/reservation/view.web?rsvsvcid=S200117171634836426","37.55323905986177","127.02085044428136","2020-01-02 00:00:00.0","2020-12-31 00:00:00.0","2020-01-02 00:00:00.0","2020-12-24 23:59:00.0","성동구"
"자체","S200117173759433568","시설대관","기타","접수중","성동구 금호2-3가동 자치회관 5층 동아리방","유료","금호2.3가동 주민센터","제한없음","http://yeyak.seoul.go.kr/reservation/view.web?rsvsvcid=S200117173759433568","37.55323905986177","127.02085044428136","2020-01-02 00:00:00.0","2020-12-31 00:00:00.0","2020-01-02 00:00:00.0","2020-12-24 23:59:00.0","성동구"
"자체","S200116173426871790","시설대관","주민사랑방","접수중","성동구 행당제2동 주민센터 공유공간","유료","행당제2동 주민센터","제한없음","http://yeyak.seoul.go.kr/reservation/view.web?rsvsvcid=S200116173426871790","37.55822157180016","127.02934920314561","2020-01-01 00:00:00.0","2020-12-31 00:00:00.0","2020-01-01 09:00:00.0","2020-12-31 18:00:00.0","성동구"
"자체","S200116174734927619","시설대관","강의실","접수중","성동구 행당제2동 주민센터 강의실","유료","행당제2동 주민센터","제한없음","http://yeyak.seoul.go.kr/reservation/view.web?rsvsvcid=S200116174734927619","37.55822157180016","127.02934920314561","2020-01-01 00:00:00.0","2020-12-31 00:00:00.0","2020-01-01 00:00:00.0","2020-12-31 18:00:00.0","성동구"
"자체","S200116175228993532","시설대관","다목적실","접수중","성동구 행당제2동 주민센터 다목적방","유료","행당제2동 주민센터","제한없음","http://yeyak.seoul.go.kr/reservation/view.web?rsvsvcid=S200116175228993532","37.55822157180016","127.02934920314561","2020-01-01 00:00:00.0","2020-12-31 00:00:00.0","2020-01-01 09:00:00.0","2020-12-31 18:00:00.0","성동구"
"자체","S200116175734365428","시설대관","기타","접수중","성동구 행당제2동주민센터 어린이 작은도서관 ","유료","행당제2동 주민센터","제한없음","http://yeyak.seoul.go.kr/reservation/view.web?rsvsvcid=S200116175734365428","37.55822157180016","127.02934920314561","2020-01-01 00:00:00.0","2020-12-31 00:00:00.0","2020-01-01 09:00:00.0","2020-12-31 18:00:00.0","성동구"
"자체","S200114143901731262","시설대관","다목적실","접수중","성동구 응봉동 주민센터 다목적실","유료","응봉동 주민센터 다목적실","제한없음","http://yeyak.seoul.go.kr/reservation/view.web?rsvsvcid=S200114143901731262","37.55313886817695","127.03340321775988","2020-01-01 00:00:00.0","2020-12-31 00:00:00.0","2020-01-01 00:00:00.0","2020-12-31 23:00:00.0","성동구"
"자체","S200128185125605157","시설대관","기타","접수중","성동구 용답동 토속공원 주민활력소","유료","성동구 용답동 주민센터","제한없음","http://yeyak.seoul.go.kr/reservation/view.web?rsvsvcid=S200128185125605157","37.56406862072303","127.05556999250638","2020-01-28 00:00:00.0","2020-12-31 00:00:00.0","2020-01-28 09:00:00.0","2020-12-31 18:00:00.0","성동구"
"자체","S200128190216576358","시설대관","다목적실","접수중","성동구 용답동 주민센터 다목적실","유료","성동구 용답동 주민센터","제한없음","http://yeyak.seoul.go.kr/reservation/view.web?rsvsvcid=S200128190216576358","37.56406862072303","127.05556999250638","2020-01-28 00:00:00.0","2020-12-31 00:00:00.0","2020-01-28 09:00:00.0","2020-12-31 18:00:00.0","성동구"
"자체","S200128190844412069","시설대관","주민사랑방","접수중","성동구 용답동 주민센터 주민사랑방","유료","성동구 용답동 주민센터","제한없음","http://yeyak.seoul.go.kr/reservation/view.web?rsvsvcid=S200128190844412069","37.56406862072303","127.05556999250638","2020-01-28 00:00:00.0","2020-12-31 00:00:00.0","2020-01-28 09:00:00.0","2020-12-31 18:00:00.0","성동구"
"자체","S200128192153104500","시설대관","다목적실","접수중","성동구 용답동 주민센터 작은도서관","유료","성동구 용답동 주민센터","제한없음","http://yeyak.seoul.go.kr/reservation/view.web?rsvsvcid=S200128192153104500","37.56406862072303","127.05556999250638","2020-01-28 00:00:00.0","2020-12-31 00:00:00.0","2020-01-28 09:00:00.0","2020-12-31 18:00:00.0","성동구"
"자체","S200601162013156834","시설대관","장애인버스","접수중","서울 장애인 버스(2호차)-노블(휠체어8석+일반21석)","유료","서울장애인버스(2호차)","장애인","http://yeyak.seoul.go.kr/reservation/view.web?rsvsvcid=S200601162013156834","37.5716126639958","127.036047956917","2020-06-01 00:00:00.0","2020-06-24 00:00:00.0","2020-06-01 00:00:00.0","2020-06-24 00:00:00.0","성동구"
"자체","S200119165117259883","시설대관","다목적실","접수중","성동구 성수2가제3동 주민센터 다목적실","유료","성수2가제3동주민센터","제한없음","http://yeyak.seoul.go.kr/reservation/view.web?rsvsvcid=S200119165117259883","37.5482220300275","127.05524589809893","2020-01-01 00:00:00.0","2020-12-31 00:00:00.0","2020-01-01 09:00:00.0","2020-12-25 18:00:00.0","성동구"
"자체","S200119170433768015","시설대관","기타","접수중","성동구 성수2가제3동 주민센터 문화교실","유료","성수2가제3동주민센터","제한없음","http://yeyak.seoul.go.kr/reservation/view.web?rsvsvcid=S200119170433768015","37.5482220300275","127.05524589809893","2020-01-01 00:00:00.0","2020-12-31 00:00:00.0","2020-01-01 09:00:00.0","2020-12-25 18:00:00.0","성동구"
"자체","S200119171148990232","시설대관","주민사랑방","접수중","성동구 성수2가제3동 주민센터 주민사랑방","유료","성수2가제3동주민센터","제한없음","http://yeyak.seoul.go.kr/reservation/view.web?rsvsvcid=S200119171148990232","37.5482220300275","127.05524589809893","2020-01-01 00:00:00.0","2020-12-31 00:00:00.0","2020-01-01 09:00:00.0","2020-12-25 18:00:00.0","성동구"
"자체","S200114165217439045","시설대관","회의실","접수중","성동구 응봉동 주민센터 소회의실","유료","응봉동 주민센터 소회의실","제한없음","http://yeyak.seoul.go.kr/reservation/view.web?rsvsvcid=S200114165217439045","37.55313886817695","127.03340321775988","2020-01-14 00:00:00.0","2020-12-31 00:00:00.0","2020-01-14 00:00:00.0","2020-12-31 23:00:00.0","성동구"
"자체","S200519091806465790","시설대관","장애인버스","접수중","서울 장애인 버스(1호차)-노블우등(휠체어5석+일반18석)","유료","서울장애인버스(1호차)","장애인","http://yeyak.seoul.go.kr/reservation/view.web?rsvsvcid=S200519091806465790","37.5716126639958","127.036047956917","2020-06-01 00:00:00.0","2020-06-30 00:00:00.0","2020-06-01 00:00:00.0","2020-06-25 00:00:00.0","성동구"
"자체","S200117142438643257","시설대관","주민사랑방","접수중","성동구 왕십리제2동주민센터 주민사랑방","유료","왕십리제2동주민센터 주민사랑방","제한없음(서울시 관련 시민 - 상세정보 확인)","http://yeyak.seoul.go.kr/reservation/view.web?rsvsvcid=S200117142438643257","37.56108284293038","127.03051383519205","2020-01-17 00:00:00.0","2020-12-31 00:00:00.0","2020-01-17 00:00:00.0","2020-12-31 23:59:00.0","성동구"
"자체","S200117172931799199","시설대관","다목적실","접수중","금호2-3가동 자치회관 3층 다목적방","유료","금호2-3가동 주민센터","제한없음","http://yeyak.seoul.go.kr/reservation/view.web?rsvsvcid=S200117172931799199","37.55323905986177","127.02085044428136","2020-01-02 00:00:00.0","2020-12-31 00:00:00.0","2020-01-02 00:00:00.0","2020-12-24 23:59:00.0","성동구"
"자체","S200120132156533800","시설대관","기타","접수중","성동구 금호4가동 작은도서관","유료(요금안내문의)","금호4가동 주민센터 ","제한없음","http://yeyak.seoul.go.kr/reservation/view.web?rsvsvcid=S200120132156533800","37.54718047181269","127.02235153283168","2020-01-21 00:00:00.0","2020-12-31 00:00:00.0","2020-01-21 09:00:00.0","2020-12-26 18:00:00.0","성동구"
"자체","S200120150021434640","시설대관","회의실","접수중","성동구 금호4가동 주민센터 소회의실","유료(요금안내문의)","금호4가동 주민센터 ","제한없음","http://yeyak.seoul.go.kr/reservation/view.web?rsvsvcid=S200120150021434640","37.54718047181269","127.02235153283168","2020-01-21 00:00:00.0","2020-12-31 00:00:00.0","2020-01-21 09:00:00.0","2020-12-26 18:00:00.0","성동구"
"자체","S200120152209014970","시설대관","다목적실","접수중","성동구 금호4가동 주민센터 다목적실","유료(요금안내문의)","금호4가동 주민센터 ","제한없음","http://yeyak.seoul.go.kr/reservation/view.web?rsvsvcid=S200120152209014970","37.54718047181269","127.02235153283168","2020-01-21 00:00:00.0","2020-12-31 00:00:00.0","2020-01-21 09:00:00.0","2020-12-26 18:00:00.0","성동구"
"자체","S200120144748872251","시설대관","주민사랑방","접수중","금호4가동 주민센터 자치사랑방","유료(요금안내문의)","금호4가동 주민센터 >자치사랑방","제한없음","http://yeyak.seoul.go.kr/reservation/view.web?rsvsvcid=S200120144748872251","37.54718047181269","127.02235153283168","2020-01-21 00:00:00.0","2020-12-31 00:00:00.0","2020-01-21 09:00:00.0","2020-12-26 18:00:00.0","성동구"
"자체","S191223164134031103","시설대관","회의실","접수중","성동구 성수2가제1동 주민센터 회의실","유료","성수2가1동 주민센터 2층회의실","제한없음","http://yeyak.seoul.go.kr/reservation/view.web?rsvsvcid=S191223164134031103","37.539540566947544","127.05402200576822","2020-01-01 00:00:00.0","2020-12-31 00:00:00.0","2020-01-01 00:00:00.0","2020-12-31 18:00:00.0","성동구"
"자체","S200512145235896006","시설대관","녹화/촬영","접수중","서울숲촬영","유료","서울숲>서울숲 커뮤니티센터","제한없음","http://yeyak.seoul.go.kr/reservation/view.web?rsvsvcid=S200512145235896006","37.54474560346541","127.03791896997889","2020-05-12 00:00:00.0","2020-06-30 00:00:00.0","2020-05-12 00:00:00.0","2020-06-30 00:00:00.0","성동구"
"자체","S200117095613042555","시설대관","다목적실","접수중","성동구 사근동 공공복합청사 다목적실","유료","사근동 공공복합청사","제한없음","http://yeyak.seoul.go.kr/reservation/view.web?rsvsvcid=S200117095613042555","37.56144749725804","127.04531824546316","2020-01-17 00:00:00.0","2020-12-31 00:00:00.0","2020-01-17 00:00:00.0","2020-12-18 18:00:00.0","성동구"
"자체","S200117104454896956","시설대관","회의실","접수중","사근동 공공복합청사 회의실(1층)","유료","사근동 공공복합청사","제한없음","http://yeyak.seoul.go.kr/reservation/view.web?rsvsvcid=S200117104454896956","37.56144749725804","127.04531824546316","2020-01-17 00:00:00.0","2020-12-31 00:00:00.0","2020-01-17 00:00:00.0","2020-12-18 18:00:00.0","성동구"
"자체","S200117132542058471","시설대관","강의실","접수중","사근동 공공복합청사 작은도서관","유료","사근동 공공복합청사","제한없음","http://yeyak.seoul.go.kr/reservation/view.web?rsvsvcid=S200117132542058471","37.56144749725804","127.04531824546316","2020-01-17 00:00:00.0","2020-12-31 00:00:00.0","2020-01-17 00:00:00.0","2020-12-18 18:00:00.0","성동구"
"자체","S200406132147204242","시설대관","다목적실","접수중","사근동 공공복합청사 주민소통방(지하2층)","유료","사근동 공공복합청사","제한없음","http://yeyak.seoul.go.kr/reservation/view.web?rsvsvcid=S200406132147204242","37.56144749725804","127.04531824546316","2020-04-07 00:00:00.0","2020-12-31 00:00:00.0","2020-04-07 00:00:00.0","2020-12-18 18:00:00.0","성동구"
"자체","S200117141228577608","시설대관","다목적실","접수중","성동구 왕십리제2동주민센터 다목적실","유료","왕십리제2동주민센터 다목적실","제한없음(서울시 관련 시민 - 상세정보 확인)","http://yeyak.seoul.go.kr/reservation/view.web?rsvsvcid=S200117141228577608","37.56108284293038","127.03051383519205","2020-01-17 00:00:00.0","2020-12-31 00:00:00.0","2020-01-17 00:00:00.0","2020-12-31 23:59:00.0","성동구"
"자체","S200114094701254964","시설대관","다목적실","접수중","성수1가제2동 주민센터 다목적실(3층)","유료","성수1가제2동주민센터 다목적실(3층)","제한없음","http://yeyak.seoul.go.kr/reservation/view.web?rsvsvcid=S200114094701254964","37.546403003710104","127.04434954231867","2020-01-14 00:00:00.0","2020-12-31 00:00:00.0","2020-01-14 09:00:00.0","2020-12-31 18:00:00.0","성동구"
"자체","S191222152900978529","시설대관","다목적실","접수중","성동구 마장동 주민센터 다목적실","유료","마장동주민센터","제한없음","http://yeyak.seoul.go.kr/reservation/view.web?rsvsvcid=S191222152900978529","37.56631824896982","127.04540722029263","2020-01-01 00:00:00.0","2020-12-31 00:00:00.0","2020-01-01 00:00:00.0","2020-12-31 00:00:00.0","성동구"
"자체","S191222154223898448","시설대관","주민사랑방","접수중","성동구 마장동주민센터 3층 수수공방","유료","마장동주민센터","제한없음","http://yeyak.seoul.go.kr/reservation/view.web?rsvsvcid=S191222154223898448","37.56631824896982","127.04540722029263","2020-01-01 00:00:00.0","2020-12-31 00:00:00.0","2020-01-01 00:00:00.0","2020-12-31 00:00:00.0","성동구"
"자체","S191222154646320337","시설대관","주민사랑방","접수중","성동구 마장동주민센터 2층 작은도서관","유료","마장동주민센터","제한없음","http://yeyak.seoul.go.kr/reservation/view.web?rsvsvcid=S191222154646320337","37.56631824896982","127.04540722029263","2020-01-01 00:00:00.0","2020-12-31 00:00:00.0","2020-01-01 00:00:00.0","2020-12-31 00:00:00.0","성동구"
"자체","S200213114744164211","시설대관","주민사랑방","접수중","성동구 마장동 주민소통공간 은하수공방 ","유료","마장동주민센터","제한없음","http://yeyak.seoul.go.kr/reservation/view.web?rsvsvcid=S200213114744164211","37.56631824896982","127.04540722029263","2020-02-13 00:00:00.0","2020-12-31 00:00:00.0","2020-02-13 00:00:00.0","2020-12-31 00:00:00.0","성동구"
"자체","S200120130814645098","시설대관","다목적실","접수중","성동구 금호1가동 주민센터 다목적실","유료","금호1가동 주민센터","제한없음","http://yeyak.seoul.go.kr/reservation/view.web?rsvsvcid=S200120130814645098","37.554860712514724","127.02164763027048","2020-01-01 00:00:00.0","2020-12-31 00:00:00.0","2020-01-01 09:00:00.0","2020-12-31 18:00:00.0","성동구"
"자체","S200120131411088480","시설대관","회의실","접수중","성동구 금호1가동 주민센터 소회의실1","유료","금호1가동 주민센터","제한없음","http://yeyak.seoul.go.kr/reservation/view.web?rsvsvcid=S200120131411088480","37.554860712514724","127.02164763027048","2020-01-01 00:00:00.0","2020-12-31 00:00:00.0","2020-01-01 09:00:00.0","2020-12-31 18:00:00.0","성동구"
"자체","S200120131650031247","시설대관","기타","접수중","성동구 금호1가동주민센터 숲속아트홀","유료","금호1가동 주민센터","제한없음","http://yeyak.seoul.go.kr/reservation/view.web?rsvsvcid=S200120131650031247","37.554860712514724","127.02164763027048","2020-01-01 00:00:00.0","2020-12-31 00:00:00.0","2020-01-01 09:00:00.0","2020-12-31 18:00:00.0","성동구"
"자체","S200120131841986618","시설대관","기타","접수중","성동구 금호1가동주민센터 공유부엌","유료","금호1가동 주민센터","제한없음","http://yeyak.seoul.go.kr/reservation/view.web?rsvsvcid=S200120131841986618","37.554860712514724","127.02164763027048","2020-01-01 00:00:00.0","2020-12-31 00:00:00.0","2020-01-01 09:00:00.0","2020-12-31 18:00:00.0","성동구"
"자체","S200120132003850767","시설대관","기타","접수중","성동구 금호1가동 주민센터 북카페(책단지꿀단지)","유료","금호1가동 주민센터","제한없음","http://yeyak.seoul.go.kr/reservation/view.web?rsvsvcid=S200120132003850767","37.554860712514724","127.02164763027048","2020-01-01 00:00:00.0","2020-12-31 00:00:00.0","2020-01-01 09:00:00.0","2020-12-31 18:00:00.0","성동구"
"자체","S191223163442602984","시설대관","다목적실","접수중","성동구 성수2가제1동 주민센터 다목적실","유료","성수2가1동 주민센터 다목적실","제한없음","http://yeyak.seoul.go.kr/reservation/view.web?rsvsvcid=S191223163442602984","37.539540566947544","127.05402200576822","2020-01-01 00:00:00.0","2020-12-31 00:00:00.0","2020-01-01 00:00:00.0","2020-12-31 00:00:00.0","성동구"
"자체","S200117110114808415","시설대관","회의실","접수중","성동구 왕십리도선동주민센터 새마을희망문고","유료","왕십리도선동 주민센터>왕십리도선동주민센터","제한없음","http://yeyak.seoul.go.kr/reservation/view.web?rsvsvcid=S200117110114808415","37.567873934090784","127.02552709511711","2020-01-17 00:00:00.0","2020-12-31 00:00:00.0","2020-01-17 09:00:00.0","2020-12-31 21:00:00.0","성동구"