"매거진일련번호","출판년도","제목","내용","PDF 다운로드 URL","썸네일이미지 URL"
"000055","2019","2019 가을 겨울호","<p><strong>목 &nbsp;차</strong></p><p>전시</p><p>서소문본관</p><p>중동현대미술전 《고향 gohyang: home》</p><p>《강박²》</p><p>북서울미술관</p><p>2019 서울사진축제 《오픈 유어 스토리지: 역사 순환 담론》</p><p>2019 하반기 어린이 전시 《사각 생각 삼각》</p><p>《레안드로 에를리치: 그림자를 드리우고》</p><p>남서울미술관</p><p>《모던 로즈》</p><p>백남준기념관<br>《석가산의 액션 뮤직》</p><p><br></p><p>창작지원사업</p><p>2019 SeMA 난지미술창작스튜디오 오픈 스튜디오<br>2019 신진미술인 전시지원 프로그램</p><p>2019 SeMA 공간지원사업</p><p><br></p><p>미술소통프로젝트</p><p>2019 대외협력전시 SeMA 컬렉션 라운지</p><p><br></p><p>주요행사</p><p>서울미디어시티비엔날레 2020 사전행사 상영회 개최<br>《강박²》 전시연계 학술심포지엄<br>《사각 생각 삼각》 전시 연계 ‘미술관 교육’ 국제 심포지엄<br>예술가의 런치박스<br>뮤지엄나이트</p><p>마케터즈 SeM</p><p><br></p><p>교육</p><p>시민미술아카데미</p><p>- 서소문 본관</p><p>- 북서울미술관<br>찾아가는 미술감상교실<br>SeMA×이음 &lt;포용적 예술 프로젝트&gt;</p><p>시민큐레이터</p><p>도슨트 양성교육 &lt;나와 모두를 위한 환대&gt;</p><p><br></p><p>미술관 소식</p><p><br></p><p>서울미디어시티비엔날레 2020 예술감독 선임</p><p>신규 분관 조성<br>SeMA人[in] 소식<br>2019 SeMA-하나 평론상</p><p>후원회 소식</p><p>SeMA人[in] 소식</p><p>SeMA人[in] 안내<br>SeMA人[in] 이사진<br><br></p>","http://sema.seoul.go.kr/common/filePdfView?FILE_PATH=%2Fnj%2FMGZ01%2F2019%2F&FILE_NM=20191126180914_f08706d274814ffaa1b067ebf210b523_e429d9d43d824506a2d715a9ef15503a","http://sema.seoul.go.kr/common/imageView?FILE_PATH=%2Fnj%2FMGZ00%2F2019%2F&FILE_NM=20191126181044_2e19a6a0da7f4d59970d9a8a52acf045_a3513f7cbb5a425fab312c1c299066ee"
"000054","2019","2019년 봄 여름호","<p>- 목 차 -</p><p><br></p><p><strong>전시</strong></p><p>&nbsp; &nbsp;<u>서소문본관</u></p><p>&nbsp; ? 데이비드 호크니</p><p>&nbsp; ? 안은미래</p><p>&nbsp; ? 에이징 월드 - Will you still love me tomorrow?</p><p>&nbsp; ? 2018 SeMA 신소장품《멀티-액세스 4913</p><p>&nbsp; ? 천경자 컬렉션 상설전《영원한 나르시시스트 천경자》</p><p>&nbsp; ? 가나아트 컬렉션 상설전《시대유감 時代遺憾》</p><p>&nbsp; &nbsp;<u>북서울미술관</u></p><p>&nbsp; ? 한국근현대명화전《근대의 꿈: 꽃나무는 심어 놓고》</p><p>&nbsp; ? 2019 타이틀 매치 김홍석 vs. 서현석《미완의 폐허》</p><p>&nbsp; ? 2019 서울 포커스《두 번의 똑같은 밤은 없다》</p><p>&nbsp; ? WEB-RETRO</p><p>&nbsp; ? 2019 상반기 어린이 전시《소프트 카오스: 공간 상상》</p><p>&nbsp; &nbsp;<u>남서울미술관</u></p><p>&nbsp; ? 불안한 사물들</p><p>&nbsp; ? 3.1운동 100주년 기념 《모두를 위한 세계》</p><p>&nbsp; &nbsp;<u>백남준기념관</u></p><p>&nbsp; ? 석가산의 액션 뮤직</p><p><strong>창작지원사업</strong></p><p>&nbsp; ? 2019 SeMA 공간지원사업</p><p>&nbsp; ? 2019 신진미술인 전시지원 프로그램</p><p><strong>미술소통프로젝트</strong></p><p>&nbsp; ? 2019 대외협력전시 SeMA 컬렉션 라운지</p><p><strong>교육</strong></p><p>&nbsp; &nbsp; <u>시민미술아카데미</u></p><p>&nbsp;- 서소문 본관</p><p>&nbsp;- 북서울미술관</p><p>&nbsp; ? 찾아가는 미술감상교실</p><p>&nbsp; ? 2019 시민큐레이터</p><p>&nbsp; ? 도슨트 양성교육</p><p><strong>&nbsp;주요행사</strong></p><p>&nbsp; ? 서울미디어시티비엔날레 2019《프리 비엔날레》</p><p>&nbsp; ? 《한묵: 또 하나의 시詩질서를 위하여》전시연계 학술대회</p><p>&nbsp; ? 예술가의 런치박스</p><p>&nbsp; ? 뮤지엄나이트</p><p>&nbsp; ? 마케터즈 SeM</p><p><strong>&nbsp;미술관 소식</strong></p><p>&nbsp; ? 미술관이모저모</p><p>&nbsp; ? 2019 SeMA-하나 평론상 공모</p><p><strong>&nbsp;후원회 소식</strong></p><p>&nbsp; ? SeMA人[in] 소식</p><p>&nbsp; ? SeMA人[in] 안내</p><p>&nbsp; ? SeMA人[in] 이사진</p>","http://sema.seoul.go.kr/common/filePdfView?FILE_PATH=%2Fnj%2FMGZ01%2F2019%2F&FILE_NM=20190829112310_b60aceb55ce941e3bbe9ee88df581f5b_53b62f77d3f0468a9e9a38d4956e2560","http://sema.seoul.go.kr/common/imageView?FILE_PATH=%2Fnj%2FMGZ00%2F2019%2F&FILE_NM=20190829112310_31a12bb973ac4cf397e6bda68296f402_4c4b1153670348a6a5ce32b6bbaf273f"
"000053","2018","2018년 가을 겨울호","<p>목차</p><p><br></p><p>&lt; 전시 &gt;</p><p>서소문 본관<br>? 서울미디어시티비엔날레 2018 &lt;좋은 삶 Eu Z?n&gt; 6<br>? &lt;이스트빌리지 뉴욕: 취약하고 극단적인&gt; 12<br>? &lt;두 개의 기둥과 일곱 개의 글자&gt; 16<br>? &lt;한묵: 또 하나의 시詩질서를 위하여&gt; 17<br>북서울미술관<br>? &lt;2018 타이틀 매치: 이형구 vs. 오민&gt; 20<br>? 2018 서울사진축제 &lt;멋진 신세계&gt; 22<br>? &lt;뉴스 리플리에게&gt; 23<br>? 2018 하반기 어린이 전시<br>&nbsp; &lt;휘어진 공간 속으로&gt; 26<br>남서울미술관<br>? &lt;확장된 메뉴얼&gt; 27<br>? &lt;2018 SeMA 예술가 길드: 만랩/ 萬 Lab&gt; 30<br>　<br>* 2019 서울시립미술관 전시일정 32</p><p><br>&lt; 창작지원사업 &gt;<br>? 2018 난지미술창작스튜디오 &lt;12기 오픈스튜디오&gt; 34<br>? 2018 창작지원사업 &lt;SeMA 공간지원사업&gt;&amp;&lt;SeMA 신진미술인 전시지원 프로그램&gt; 35</p><p><br>&lt; 연구 &gt;<br>? SeMA 소장품 ㅣ 가나아트 컬렉션 36</p><p><br>&lt; 교육 &gt;</p><p>? 찾아가는 미술감상교실 37<br>? 시민미술아카데미<br>&nbsp;- 서소문 본관 38<br>&nbsp;- 북서울미술관 39<br>? 2018 서울시민큐레이터 40<br>? 2018 사진아카데미 42<br>* 2019년도 상반기 교육프로그램 모집일정 43</p><p><br></p><p>&lt; 주요행사 &gt;<br>? 뮤지엄나이트 44<br>? 마케터즈 SeM 45<br>? 예술가의 런치박스 46<br>? 서울아트북페어: 언리미티드 에디션 48</p><p><br>&lt; 미술관 소식 &gt;<br>? 미술관 이모저모 49</p><p>&lt; 미술관 후원회 &gt;<br>? SeMA人[in] 소식 50<br>? SeMA人[in] 안내 51<br>? SeMA人[in] 이사진 52</p>","http://sema.seoul.go.kr/common/filePdfView?FILE_PATH=%2Fnj%2FMGZ01%2F2018%2F&FILE_NM=20181219141628_0d9facc786ee4649bb8169493f44e397_a4c363f10dc04cc28b1fcc7631d42160","http://sema.seoul.go.kr/common/imageView?FILE_PATH=%2Fnj%2FMGZ00%2F2018%2F&FILE_NM=20181219141628_2e29cb74e5e04c1cbed77247d66f6dac_8ca82fe6f3d0481a81ee6f29c7f73ed2"
"000052","2018","2018년 봄여름호","<p>목차</p><p><br></p><p>&lt; 전시 &gt;</p><p>서소문 본관<br>? 서울미디어시티비엔날레 2018 &lt;좋은 삶 Eu Z?n&gt; 4<br>? 보이스리스―일곱 바다를 비추는 별 6<br>? SeMA 개관 30주년 기념전 &lt;디지털 프롬나드&gt; 10<br>? 씨실과 날실로 14<br>? 2017 SeMA 신소장품 &lt;하늘 땅 사람들&gt; 15<br>? 가나아트 컬렉션 상설전 &lt;시대유감 時代遺憾&gt; 16<br>북서울미술관<br>? 2018 서울 포커스 &lt;행동을 위한 디자인&gt; 17<br>? SeMA 소장작품 기획전 &lt;잃어버린 세계&gt; 20<br>? 유령팔 24<br>? 2018 상반기 어린이 전시<br>&nbsp; &lt;잭슨홍의 사물탐구놀이: 달려라 연필 날아라 지우개!&gt; 28<br>남서울미술관<br>? 날씨의 맛 32<br>? 예술가 없는 초상 36<br>　<br>&lt; 해외순회전 &gt;<br>? SeMA 해외순회전 &lt;안상수의 삶-글짜&gt; 38</p><p><br></p><p>&lt; 창작지원사업 &gt;<br>? 2018 난지미술창작스튜디오 &lt;12기 오픈스튜디오&gt; 40<br>? SeMA 벙커 2018 상반기 기획전 &lt;관객행동요령&gt; 41<br>? SeMA 벙커 SeMA 창고 &lt;2018 SeMA 공간지원사업&gt; 42<br>? 2018 SeMA 신진미술인 전시지원 프로그램 43</p><p><br></p><p>&lt; 미술소통프로젝트 &gt;<br>? 2018 대외협력전시 2018 SeMA 컬렉션 라운지 44</p><p><br></p><p>&lt; 주요행사 &gt;<br>? 뮤지엄나이트 45<br>? 마케터즈 SeM 46<br>? 예술가의 런치박스 47<br><br></p><p>&lt; 교육 &gt;</p><p>? 시민미술아카데미<br>&nbsp;- 서소문 본관 48<br>&nbsp;- 북서울미술관 49<br>? 찾아가는 미술감상교실 50<br>? 2018 시민큐레이터 51<br><br></p><p>&lt; 새소식 &gt;</p><p>? 미술관 소식 52<br>? 서울시립미술관 후원회 SeMA人[in] 53</p>","http://sema.seoul.go.kr/common/filePdfView?FILE_PATH=%2Fnj%2FMGZ01%2F2018%2F&FILE_NM=20180806175058_dd44155308c84d38b96df6af0b40b515_73ca2f40913248e4b7f27074543db2ba","http://sema.seoul.go.kr/common/imageView?FILE_PATH=%2Fnj%2FMGZ00%2F2018%2F&FILE_NM=20180806175058_f37d033683a94f7c8defa33e247f3fd6_e0f3de0b7f9246598e062c5f37cf2c98"
"000051","2017","2017 가을겨울호","<p>목차</p><p data-empty='true'><br></p><p>&lt;전시&gt;</p><p>? 서소문 본관</p><p>- 2017 통일테마전?1부 &lt;경계 155&gt;</p><p>- 2017 통일테마전?2부 &lt;더불어 평화&gt;</p><p>- SeMA 비서구권미술 &lt;미래 과거를 위한 일&gt;</p><p>- 2017？18 한영상호교류의 해 기념전 &lt;불협화음의 기술: 다름과 함께하기&gt;</p><p>- UIA 2017 서울세계건축대회기념전 &lt;자율진화도시&gt;</p><p>- 기증작가 홍성도 초대전 &lt;시차(時差) 그리고 시차(視差)&gt;</p><p>? 북서울미술관</p><p>- 2017 서울 포커스 &lt;25.7&gt;</p><p>- 2017 하반기 어린이 전시 &lt;벌집도시와 소리숨바꼭질!&gt;</p><p>- &lt;메이크 잇 Make it&gt;</p><p>? 남서울미술관</p><p>- &lt;망각에 부치는 노래&gt;</p><p data-empty='true'><br></p><p>&lt;창작지원사업&gt;</p><p>? 난지미술창작스튜디오</p><p>- 2017 난지 국제 입주작가 교환프로그램</p><p>? 백남준기념관</p><p>- 백남준기념관 워크숍 &lt;탈주연결&gt;</p><p>? SeMA 창고</p><p>- 2017 SeMA 예술가 길드 &lt;표본창고&gt; 36</p><p>- 2017 SeMA 기획전 37</p><p>? SeMA 벙커</p><p>- 개관전 &lt;여의도 모더니티&gt;</p><p>- 역사갤러리 특별전 &lt;나 박정희 벙커&gt;</p><p data-empty='true'><br></p><p>&lt;미술소통프로젝트&gt;</p><p>- 2017 대외협력전시 &amp; SeMA 컬렉션 라운지</p><p data-empty='true'><br></p><p>&lt;주요행사&gt;</p><p>- 뮤지엄나이트</p><p>- 예술가의 런치박스</p><p>- 2017 SeMA 하나 평론상</p><p>- 마케터즈 SeM</p><p data-empty='true'><br></p><p>&lt;교육&gt;</p><p>- 찾아가는 미술감상교실</p><p>- 2017 시민큐레이터</p><p>- 시민미술아카데미?서소문 본관</p><p>- 시민미술아카데미?북서울미술관</p><p data-empty='true'><br></p><p>&lt;미술관소식&gt;</p><p>- 새소식 52</p><p>- 서울시립미술관 후원회 SeMA人[in] 53</p>","http://sema.seoul.go.kr/common/filePdfView?FILE_PATH=%2Fdata%2Fmagazine%2F2017%2F&FILE_NM=20190114194045_3b688dfcb5a142dc979cb2df83b67bfc_0fd6a04e9069442f9abebaca33bb5765","http://sema.seoul.go.kr/common/imageView?FILE_PATH=%2Fdata%2Fmagazine%2F2017%2F&FILE_NM=20190114194044_d287cb82bb8d48558f825fea770fab02_8333ffb6bf794828bea50dbccfd272aa"
"000050","2017","2017년 봄여름호","<p>목차</p><p data-empty='true'><br></p><p>&lt;전시&gt;</p><p>? SeMA Green 2017 &lt;날개 .파티&gt; - 서소문 본관</p><p>? 까르띠에 현대미술재단 소장품 기획전 &lt;하이라이트&gt; - 서소문 본관</p><p>? 2017 커뮤니티 아트: 안녕하세요 - 북서울미술관</p><p>? 덕후 프로젝트: 몰입하다 - 북서울미술관</p><p>? 2017 북서울미술관 어린이 전시 &lt;율동: 규칙과 운동감&gt; - 북서울미술관</p><p>? 2016 서울시립미술관 신소장품 선選 &nbsp;- 남서울미술관</p><p>? 공예의 자리 Rethinking Craft &nbsp;- 남서울미술관</p><p data-empty='true'><br></p><p>&lt;창작지원사업&gt;</p><p>난지미술창작스튜디오</p><p>? 난지미술창작스튜디오 10기 리뷰전 &lt;보고?10?다&gt;</p><p>? 난지미술창작스튜디오 11기 오픈스튜디오</p><p>백남준기념관</p><p>? 백남준기념관 개관전 &lt;내일 세상은 아름다울 것이다&gt;</p><p>SeMA 창고</p><p>? SeMA 창고 기획전 &lt;다시 꽃을 보다: 전쟁 그리고 여성들&gt;</p><p>? SeMA 벙커</p><p>? 미술창작아뜰리에</p><p>? 2017 신진미술인 전시지원 프로그램</p><p data-empty='true'><br></p><p>&lt;미술소통프로젝트&gt;</p><p>? 2017 대외협력전시</p><p>? SeMA 컬렉션 라운지</p><p data-empty='true'><br></p><p>&lt;주요행사&gt;</p><p>? 뮤지엄나이트</p><p>? 마케터즈 SeM</p><p>? 예술가의 런치박스</p><p data-empty='true'><br></p><p>&lt;교육&gt;</p><p>? 시민미술아카데미</p><p>&nbsp;- 서소문 본관</p><p>&nbsp;- 북서울미술관</p><p>? 찾아가는 미술감상교실</p><p>? 시민큐레이터</p><p data-empty='true'><br></p><p>&lt;미술관 소식&gt;</p><p>? 신규 분관 건립: 평창동 미술문화복합공간(가칭)</p><p>? 새소식</p><p>? 서울시립미술관 후원회 SeMA人[in]</p><p>? 서울시립미술관 후원회 SeMA人[in] 이사진</p>","http://sema.seoul.go.kr/common/filePdfView?FILE_PATH=%2Fdata%2Fmagazine%2F2017%2F&FILE_NM=20190114194045_b2f1d1913e7840d0851b8733141c5222_539f6b56ff1746abb8bc0502ef0cae56","http://sema.seoul.go.kr/common/imageView?FILE_PATH=%2Fdata%2Fmagazine%2F2017%2F&FILE_NM=20190114194044_f5cd12b7441d4d6cac77002eb235cee6_b7a7d7b9bff8412e8d0c42bb745cc1c7"
"000049","2016","2016년 가을겨울호","<p>2016-'17 서울시립미술관 전시일정</p><p>SeMA 비엔날레</p><p>신규시설</p><p>미술소통프로젝트</p><p>주요행사</p><p>교육</p><p>미술관소식</p>","http://sema.seoul.go.kr/common/filePdfView?FILE_PATH=%2Fnj%2FMGZ01%2F2018%2F&FILE_NM=20180807134412_c8cd3dc4b4094e939eb034ed2cf14f12_d968d79ca48a4c969bfa19e66ba8310e","http://sema.seoul.go.kr/common/imageView?FILE_PATH=%2Fdata%2Fmagazine%2F2016%2F&FILE_NM=20190114194044_0bd0b18a66ee4689a710ab10ca6bf234_db88439cf90c40a2ab9dc0972e6fbb26"
"000048","2016","2016년 봄여름호","전시   SeMA 9景   SeMA 9景(경) 구경가자!     1경 SeMA Blue 2016 <서울 바벨>     2경 한불수교 130주년 기념전       ? <보이지 않는 가족>       ? <도시괴담>     3경 드림웍스 애니메이션 특별전: <스케치에서          스크린으로>     4경 천경자 1주기 추모전 <바람은 불어도 좋다 어차피          부는 바람이다>     5경 백남준 10주기 추모전 <백남준 ∞ 플럭서스>     8경 사회 속 미술 <행복의 나라>   신설 상설전     가나아트 컬렉션 <앤솔러지>   리뷰     현대카드 컬처프로젝트 19 <스탠리 큐브릭>     2015 SeMA 컬렉션 <쇼케이스>     2016 상반기 어린이전시 <빨주노초파남보>     SeMA 근현대사 프로젝트 <미술관이 된          舊벨기에영사관>  주요행사   예술가의 런치박스   뮤지엄나이트   마케터즈 SeM  교육   시민미술아카데미?서소문 본관   시민미술아카데미?북서울미술관   사진아카데미 <서울 오늘을 찍다>   찾아가는 미술감상교실   시민큐레이터  미술관 소식   신생공간 소식 (백남준 기념관 SeMA벙커 SeMA창고)   새소식   서울시립미술관 후원회 SeMA","http://sema.seoul.go.kr/common/filePdfView?FILE_PATH=%2Fdata%2Fmagazine%2F2016%2F&FILE_NM=20190114194045_691e107623e84b0dbc795fa2f792ee6d_e4883513a33a41428b563fc53263454f","http://sema.seoul.go.kr/common/imageView?FILE_PATH=%2Fdata%2Fmagazine%2F2016%2F&FILE_NM=20190114194044_399b09f45b9c45e3add912675e8a8452_b7efa5b16bda4ba58646967da908f7f9"
"000047","2015","2015년 가을겨울호","목차  2015 시립미술관 전시일정  전시 서소문 본관 피스마이너스원: 무대를 넘어서 광복70주년기념 <북한프로젝트> 동아시아 페미니즘: 판타시아 유휴공간 건축 프로젝트 <리-플레이: 4개의 플랫폼 & 17번의 이벤트> 북서울미술관 조우 ACCIDENTAL ENCOUNTER 타이틀 매치: 금누리 vs 홍정표 2015 서울포커스 <손의 축제> 남서울생활미술관 김종학 컬렉션 창작의 열쇠  주요행사 마케터즈 SeM 예술가의 런치박스 2015 대외협력전시 SeMA 브랜치  교육 찾아가는 미술감상교실 전시해설서비스 시민미술아카데미(서소문 본관) 시민미술아카데미(북서울미술관) 시민 큐레이터 사진아카데미 <서울 오늘을 찍다>  미술관 소식 SeMA 소식 서울시립미술관 후원회 SeMA人[in] ","http://sema.seoul.go.kr/common/filePdfView?FILE_PATH=%2Fdata%2Fmagazine%2F2015%2F&FILE_NM=20190114194045_be18f785539e4d03bd3d0756b85479aa_be29365ade8247a085471eb350fe2b2a","http://sema.seoul.go.kr/common/imageView?FILE_PATH=%2Fdata%2Fmagazine%2F2015%2F&FILE_NM=20190114194044_3d2d8ee06577429291b9de582cbb8f12_115babadb7a544e78c677e9647c7918a"
"000046","2015","2015년 봄여름호","전시   리뷰     2014 신소장작품전 <SeMA 살롱>     2015 한중일 차세대 대표작가 3인전:     미묘한 삼각관계     케테 콜비츠     코끼리 주름 펼치다   프리뷰     2015 SeMA Green: 윤석남 심장     분단 70년 주제전: 북한 프로젝트 (가제)  주요행사   Emerging Artists: 신진작가       전시지원 프로그램   마케터스 SeM   예술가의 런치박스  교육   사진아카데미 <서울 오늘을 찍다>   시민 큐레이터   찾아가는 미술감상교실   시민미술아카데미(서소문 본관)   시민미술아카데미(북서울미술관)  미술관 소식   미술관 소식   번역서 출간   SeMA-하나 미디어아트어워드 시상식   시립미술관후원회 세마인(人) ","http://sema.seoul.go.kr/common/filePdfView?FILE_PATH=%2Fdata%2Fmagazine%2F2015%2F&FILE_NM=20190114194044_d21e78fe93fb40b7b59208356775c76c_145a5eae5c354ed9ac3668d170b477b7","http://sema.seoul.go.kr/common/imageView?FILE_PATH=%2Fdata%2Fmagazine%2F2015%2F&FILE_NM=20190114194043_cc3f35b38c92454499d2463718d0974b_d0bcce492a3440d9961b864b2ac2d6f0"
"000045","2014","2014년 가을겨울호","목차 2014 시립미술관 전시일정  전시 SeMA 비엔날레:미디어시티서울 2014 상설전-영원한 나르시시스트천경자   리뷰 SeMA BLUE 2014 <오작동 라이브러리> 유니버설 스튜디오 서울 아트스타코리아 <은밀하게 위대하게> 콘텍트 VIP 1980-60:빈티지사진 황규태-사진이후의 사진 강북의 달 타이틀매치-강은엽vs김지은 만물상-사물에서 존재로   프리뷰 난지8기 리뷰 로우 테크놀로지:미래로 돌아가다 아프리카 나우 이영순 지승작품전<옛것 같은 새것 새것 같은 옛것>  주요행사 2014 한중일 아트 콜로키움 예술가의 런치박스 마케터스 SeM 아트캠페인 Transform Today  교육 찾아가는 미술감상교실 시민미술아카데미(서소문 본관) 시민미술아카데미(북서울미술관)  미술관 소식 미술관소식 미디어아트 어워즈 창설 시립미술관후원회 세마인(人) ","http://sema.seoul.go.kr/common/filePdfView?FILE_PATH=%2Fdata%2Fmagazine%2F2014%2F&FILE_NM=20190114194044_adea5b100c1d4d9b898ccc5be8145cc0_b4b568a9137e433fa52a5b0f9b845c77","http://sema.seoul.go.kr/common/imageView?FILE_PATH=%2Fdata%2Fmagazine%2F2014%2F&FILE_NM=20190114194043_9cb3d9defbbc463e8e628fba9a319b99_6118c559da284dbca0a986b99914f08c"
"000044","2014","2014년 봄여름호","2 [비전 & 소식] 2014년 서울시립미술관 연간 전시 & 소식 4 [컬렉션] 서울시립미술관 신소장작품 2013 8 [전시] 2014 SeMA GOLD 노바디Nobody 12 [전시] 사진과 미디어: 새벽4시 14 [전시] 한중 현대미술전 액체문명 16 [전시] 미술관 속 정원을 가꾸다 성장교본 The Growing Manual 18 [전시] 스토브가 있는 아뜰리에 20 [전시] 2013 서울포커스 한국화의 반란  22 [교육] 찾아가는 미술감상교실 23 [교육] 함께 배워요! SeMA Learn","http://sema.seoul.go.kr/common/filePdfView?FILE_PATH=%2Fdata%2Fmagazine%2F2014%2F&FILE_NM=20190114194044_861d1cbc98bf451cb693751ea5fef5d2_ea6862c331124397aabb3aa2ddcf6e81","http://sema.seoul.go.kr/common/imageView?FILE_PATH=%2Fdata%2Fmagazine%2F2014%2F&FILE_NM=20190114194043_67d1d3f6d15e4ec78c589a79e6e0c42c_fb890f0aa79f4ec797a866306476135d"
"000043","2013","2013 가을겨울호","2 [개관] 서울시립 북서울미술관 개관 4 [전시] 장면의 재구성 #1_SCENES VS. SCENES 8 [전시] 서울풍경 SEOULscape 11 [전시] 아이 러브 서울 I ♡ SEOUL 14 [전시] 이윤신: 흉내 낼 수 없는 일상의 아름다움 16 [전시] Video Fever: Screening Live Performance and Talk  18 [전시] 2013 난지아트쇼 20 [교육] 네버엔딩 스토리: 우리들의 무한 상상 이야기 22 [이벤트] 100파티 그 뜨거운 현장 23 [주요 업무 소식]    [미술관 소식]    [미술관 행사]","http://sema.seoul.go.kr/common/filePdfView?FILE_PATH=%2Fdata%2Fmagazine%2F2013%2F&FILE_NM=20190114194044_23db014aaf1548ecb41329f9eb2ee112_76c8a7c2a3da4b3ea25c5e2dee80aa41","http://sema.seoul.go.kr/common/imageView?FILE_PATH=%2Fdata%2Fmagazine%2F2013%2F&FILE_NM=20190114194043_3dda4bd0b5ce4421b0bc69848886f102_a748386024354f728261c9adf5e5c649"
"000042","2013","2013년 여름호","2 [전시] SeMA Green 김구림 초대전 ？잘 알지도 못하면서？ 8 [전시] 낙원을 그린 화가: 고갱 그리고 그 이후 12 [전시] 장응복의 부티크 호텔 도원몽 ? 호텔이 된 미술관 16 Emerging Artists: 신진작가 전시지원 프로그램 22 [미술관 소식]","http://sema.seoul.go.kr/common/filePdfView?FILE_PATH=%2Fdata%2Fmagazine%2F2013%2F&FILE_NM=20190114194044_7909b5a9947e4be79e7fc29cf67da2da_6300450a169b4ebf8835bebabc1dd16a","http://sema.seoul.go.kr/common/imageView?FILE_PATH=%2Fdata%2Fmagazine%2F2013%2F&FILE_NM=20190114194043_309ce7f127a14a9d987cf1091208b8d3_8e7fffd057014135943c7ce91f045c0a"
"000041","2013","2013년 봄호","[2] 한국-대만 교류展 대만현대미술 Rolling! Visual Art in Taiwan [6] 격동기의 혁신예술: 재일작가를 중심으로 [10] 전국시도립미술관네트워크 하정웅 컬렉션 특선전의 취지와 의의 [12] Craft Masters Today: 서울무형문화재 초대展 [14] 종합극장: Interspace dialogue [22] 미술관 소식 [19] 서울시립미술관 전시도슨팅 앱 서비스 런칭 [20] 왜 영화는 미술가를 사랑하는가? ？미술 영화로 풀다？ [23] 주요 업무 소식","http://sema.seoul.go.kr/common/filePdfView?FILE_PATH=%2Fdata%2Fmagazine%2F2013%2F&FILE_NM=20190114194044_61a30a0f928043059f45ac8c1d2f9e68_e01bac530e814100a8d0b041133fd5f2","http://sema.seoul.go.kr/common/imageView?FILE_PATH=%2Fdata%2Fmagazine%2F2013%2F&FILE_NM=20190114194043_b703d0c22e2d46009826f956545cbe3e_5182637d2e6c46a4b865e9b205d1ff66"
"000040","2012","2012년 겨울호","2 기획특집 | 팀 버튼 전  전시개요/<팀 버튼> 전 전시 재미있게 보기 팀 버튼의 영화세계/작가 인터뷰 10 리뷰 | 인공정원 12 프리뷰 | 2012 서울미술대전 14 교육 | 찾아가는 미술감상교실 16 교육 | 시민미술아카데미 18 I♥SeMA 20 줌인 1 | 2012 SeMA 아카이브 22 줌인 2 | SeMA 아트 라운지 프로젝트 23 미술관 뉴스","http://sema.seoul.go.kr/common/filePdfView?FILE_PATH=%2Fdata%2Fmagazine%2F2012%2F&FILE_NM=20190114194044_0c8d4ffeb6dd4c199068b7ba813ecec9_08cb584fe79f45bd9f3fb6d278d06625","http://sema.seoul.go.kr/common/imageView?FILE_PATH=%2Fdata%2Fmagazine%2F2012%2F&FILE_NM=20190114194043_fe63ca2de72e485c8c44b4cc97e26350_0a861bddbcab4ab1a0e9c83acdcb266d"
"000039","2012","2012년 가을호","2 기획특집 | 미디어시티 서울 2012 전시개요/전시만들기/출품작 소개 최두은 협력 큐레이터 추천 작품/작가 인터뷰 10 리뷰 | 한일교류전 12 프리뷰 | 주명덕_시작과 시작 14 교육 | 찾아가는 미술감상교실 16 교육 | 시민미술아카데미 18 I♥SeMA 20 리뷰 | 야외조각공원 조성 완료 22 미술관 뉴스 23 가을음악회","http://sema.seoul.go.kr/common/filePdfView?FILE_PATH=%2Fdata%2Fmagazine%2F2012%2F&FILE_NM=20190114194044_6ec0e1a60a88452fbdc54c6f259fca1c_2c86fa2cf0dc4ad09757e947649d2829","http://sema.seoul.go.kr/common/imageView?FILE_PATH=%2Fdata%2Fmagazine%2F2012%2F&FILE_NM=20190114194043_0618ceb4b88c4448bd7418174cac2287_a5c1841ea4a54730a1c1a4f3385a33ba"
"000038","2012","2012년 여름호","<<이야기가 있는 미술관>>  2012 SUMMER 2 SeMA 중간허리 2012 : 히든트랙 6 전시대표작 소개 8 히든트랙 전시관람 포인트 10 Mapping the Realities :     SeMA 콜렉션으로 다시 보는 1970-80년대 한국미술 14 찾아가는 미술감상교실 16 시민미술아카데미<전시장에서 와글와글> 18 SeMA와 함께 시민 사진 콘테스트 우수작 20 야외조각공원 조성 중간보고서<야외조각 100배 즐기기> 22 미리보는 미디어시티 서울 2012<Spell on you_너에게 주문을 건다>   ","http://sema.seoul.go.kr/common/filePdfView?FILE_PATH=%2Fdata%2Fmagazine%2F2012%2F&FILE_NM=20190114194044_e611e730303a4f0999580aae4712567b_b5e6798d2be04cd49c69f9a854a87e7d","http://sema.seoul.go.kr/common/imageView?FILE_PATH=%2Fdata%2Fmagazine%2F2012%2F&FILE_NM=20190114194043_be53fa922ad6413bbb6df7a21ee209f6_f639dd4e2cd44a22b8f77c28d49c7b4c"
"000037","2012","2012년 봄호","이야기가 있는 미술관 2쪽 Special Issue 1:<SeMA 청년 2012>전 4쪽 전시대표작 소개 6쪽 내작품을 말한다/작가에게 물었습니다 8쪽 전시 비평 10족 Review:<신소장품2011>전 12족 Preview:<기증작가 초대전-민경갑>전 14족 Education:찾아가는 미술감상교실 16쪽 Education:시민미술아카데미 20쪽 Special Issue2:야외조각공원 23쪽 SeMA News :서울시립미술관 봄 음악회","http://sema.seoul.go.kr/common/filePdfView?FILE_PATH=%2Fdata%2Fmagazine%2F2012%2F&FILE_NM=20190114194044_5e4b345510604a2fbfe3e4adce2f0eee_cf9a50ec659b4d30b922fcce0ceccf69","http://sema.seoul.go.kr/common/imageView?FILE_PATH=%2Fdata%2Fmagazine%2F2012%2F&FILE_NM=20190114194043_8f0535651d2e4b7fac935fd78b61b7fa_91a52d50c7774556a8865d1884eb1aad"
"000036","2011","2011년 겨울호","Special Feature 02 명사가 바라본 미술관  Exhibition 04 특별전 06 한국추상_10인의 지평 08 소장품 기획전 10 city_net Asia 2011 관람후기  Education 12 2011 시민미술아카데미 14 2011 찾아가는 미술감상교실  Event 16 2011 SeMA 신진작가 지원사업  The Collection 18 2011 자치구 순회전  Museum News 20 유희영 관장 '한국 미술계를 움직이는 대표인물' 부문 3위에 선정.<하늘에서 본 지구> 특별전 개막식 미술관 나눔과 봉사활동 계속 이어져 등","http://sema.seoul.go.kr/common/filePdfView?FILE_PATH=%2Fdata%2Fmagazine%2F2011%2F&FILE_NM=20190114194044_2c8fed35ae2b424386791fd351e7ad70_c83c8749692249519d80963060991773","http://sema.seoul.go.kr/common/imageView?FILE_PATH=%2Fdata%2Fmagazine%2F2011%2F&FILE_NM=20190114194043_1f92210a014d4105940abb9cd930f6b9_7c47878cb0784f37811a35d4859e6d9b"
"000035","2011","2011년 가을호","Special Feature 명사가 바라본 미술관  Exhibition City_net Asia 2011 서울사진축제 최덕휴 기증작가전 한국 호주 교류전  Education 2011 시민미술아카데미 2011 찾아가는 미술감상교실 시립미술관 자료실 소개  Event 가을음악회  The Collection 신소장작품 2010  Museum News <City_net Asia 2011>전 성황리에 개막 최덕휴 기증작가전 개막식 서소문본관 보수공사 등 ","http://sema.seoul.go.kr/common/filePdfView?FILE_PATH=%2Fdata%2Fmagazine%2F2011%2F&FILE_NM=20190114194044_041d00f6aa2247a7ac3bd820ce08c5fa_af825e92c5be433eb2ddb5142301cf5a","http://sema.seoul.go.kr/common/imageView?FILE_PATH=%2Fdata%2Fmagazine%2F2011%2F&FILE_NM=20190114194043_7bcd3d3f58c04e6397c468fe50650274_cb1186a8142d4d879ce51049bfb2cddf"
"000034","2011","2011년 여름호","Special Feature 명사가 바라본 미술관  Exhibition 이미지의 수사학 여름방학기획전 서울도시탐색전 알고싶은 현대미술전 2011 미술관 봄나들이  Education 2011 시민미술아카데미 2011 찾아가는 미술감상교실  Event 호주미디어아티스트 워크숍 교사초청 전시설명회  The Collection 2011 자치구 순회전  Museum News 미술관 창의워크숍 서소문본관 남서울분관 보수공사 강북시립미술관(가칭)명칭 선정 등","http://sema.seoul.go.kr/common/filePdfView?FILE_PATH=%2Fdata%2Fmagazine%2F2011%2F&FILE_NM=20190114194044_a098fe7b9d98416cb99d24d6c889437b_b19e8dfd622c445e92b1fdd77afeee0c","http://sema.seoul.go.kr/common/imageView?FILE_PATH=%2Fdata%2Fmagazine%2F2011%2F&FILE_NM=20190114194043_2643565452fe4693a232d7f6bd94efc3_9a9c160f8ac242718c5e4eaf84426fc6"
"000033","2011","2011년 봄호","Special Feature 02 명사가 바라본 미술관  Exhibition 04 한국*호주 교류전 06 서울미술대전 07 베르나르 브네 08 도시를 스케치하다 09 2011 SeMA 신진작가 지원프로그램 10 샤갈 관람후기 이벤트 당선작  Education 12 2011 시민미술아카데미 13 2011 찾아가는 미술감상교실  Event 14 2011 난지열린미술제  The Collection 16 2011 자치구 순회전  Research 18 미술관 인지도 조사결과  Museum News 20 시의회 현장시찰 미술관 봉사활동 미술관 동정 등 SeMA란 Seoul Museum of Art의 이니셜로 서울시립미술관의 약칭입니다. Seoul Museum of Art 2011 Spring","http://sema.seoul.go.kr/common/filePdfView?FILE_PATH=%2Fdata%2Fmagazine%2F2011%2F&FILE_NM=20190114194044_a91cdb6592d440c792d76ea4f98ee674_b1b37fea53e94647a8520056477df104","http://sema.seoul.go.kr/common/imageView?FILE_PATH=%2Fdata%2Fmagazine%2F2011%2F&FILE_NM=20190114194043_d084f48e7eec4c1bb8b4b3fefa281c2e_884895b104f242ac8f31aed2f70e8e80"
"000032","2010","2010년 겨울호","Special Feature 02 색채의 마술사 샤갈 관람하기 04 샤갈의 생애 05 SeMA art Caf？ 06 2010년 미술관 결산 Exhibition 10 <SeMA2010>展 12 서울미술대전 후기 13 서울의 초상전 후기 14 난지 오픈스튜디오  Education 16 2010 시민미술교육 결산  Event 18 샤갈 음악으로 만나다 19 SeMA 워크숍 후기  Museum News 20 2010 Winter","http://sema.seoul.go.kr/common/filePdfView?FILE_PATH=%2Fdata%2Fmagazine%2F2010%2F&FILE_NM=20190114194045_de0c932626db4e61be22987efd5b55ce_120199458d1744b49f3928513597f546","http://sema.seoul.go.kr/common/imageView?FILE_PATH=%2Fdata%2Fmagazine%2F2010%2F&FILE_NM=20190114194044_3ee6a829d98a4902bf0926a4ba77184c_f1f46a711fa746d2a16528fe0592ee20"
"000031","2010","2010년 가을호","Special Feature 02 미디어 시티 서울 2010 즐기기 05 미디어 시티 서울 2010 큐레이터 팀 소개  Exhibition 06 2010 미술관 가을나들이_ 아날로그의 숲’展 08 한국화 판타지_ 한국화의 감각적 재해석展 10 미리 보는 <색채의 마술사_샤갈Ⅱ> 11 로댕의 끝없는 실험을 재발견하다  Education 12 서울시립미술관 미술교육 참여 가이드  The Collection 14 우리 동네에서 만나는 ‘현대미술’  Event 16 오픈스튜디오?제1회 난지열린미술제후기 18 2010 서울시립미술관 가을음악회_ 창문으로 보이는 서울 19 SeMA art Caf？_미적 저널리즘 Aesthetic Journalism  Museum News 20 2010 Autumn","http://sema.seoul.go.kr/common/filePdfView?FILE_PATH=%2Fdata%2Fmagazine%2F2010%2F&FILE_NM=20190114194044_75934b9ed0c24a24ba8df9ed46bd196f_d6208ba5dd3a49538b469b3fb191766f","http://sema.seoul.go.kr/common/imageView?FILE_PATH=%2Fdata%2Fmagazine%2F2010%2F&FILE_NM=20190114194043_5a7b4acca52b4744b56542503312394c_ec7bd12be59a4facb0f27c3f2ca7ab78"
"000030","2010","2010년 여름호","Exhibition 02 Special Feature    만 레이와 그의 친구들의 사진展 04 만 레이의 생애 05 SeMA art Cafe    만 레이의 사진인화 기법 06 로댕 조각의 현대성    무한한 확장과 재생산 08 예술가 프로덕션展 10 미디어시티서울2010:트러스트  The Collection 12 2010년 제1차 신소장작품  Education 14 2010 시민미술아카데미    창의성으로 미래를 비상하는    서울시립미술관 아이들 16 2010 찾아가는 미술감상교실    보이는 것이 전부는 아니다! 18 도슨트/자원봉사자 참여후기  Museum News 20 2010 Summer","","http://sema.seoul.go.kr/common/imageView?FILE_PATH=%2Fdata%2Fmagazine%2F2010%2F&FILE_NM=20190114194044_1c16b9cb37434e6c9b89f1a1b89cd262_7fea75df0aaf447b9bec73bbc9bb22fc"
"000029","2010","2010년 봄호","Exhibition 02 오승우 Oh Seung Woo 03 수상한 집으로의 초대 06 2010 미술관 '봄'나들이 환상동화展 08 신의 손 로댕展 로댕 조각의 현대성 10 앤디 워홀의 팝아트 100일간의 파티 후  The Collection 12 신소장작품 2009  Special Feature 14 기증 컬렉션  Education 16 2010 시민미술아카데미 18 2010 찾아가는 미술감상교실  Museum News 20 2010 Spring","","http://sema.seoul.go.kr/common/imageView?FILE_PATH=%2Fdata%2Fmagazine%2F2010%2F&FILE_NM=20190114194044_d282acaa515c4213b83fd3c241d48a34_d07f4e979b0247f7975bd163e28da30e"
"000028","2009","2009년겨울호","02   뜨거운 열기 가득한 앤디 워홀의 위대한 팝아트의 세계  04   앤디워홀의 생애  05   SeMA art Cafe_용어풀이  06   조각적인 것에 대한 저항_고정되지 않는 실험 08   서울 국제 미디어 비엔날레 _2009 국제 심포지엄  10   2009 SeMA_신진작가 전시지원프로그램  12   난지미술창작스튜디오 참여후기  13   SeMA 신진작가 전시지원 프로그램 참여후기  14   시민미술아카데미 2009년의 성과와 비전  16   찾아가는 미술감상교실 2009년 결산  18   서울시립미술관 인지도 조사  20   Museum News_2009 Winter ","","http://sema.seoul.go.kr/common/imageView?FILE_PATH=%2Fdata%2Fmagazine%2F2009%2F&FILE_NM=20190114194044_cad96869dad740dab8208d1de0fbfc1e_301a5946dc4d44e583624a266608ee44"
"000027","2009","2009년가을호","Exhibition   02 City_net Asia 2009展 : 도쿄 베이징 이스탄불 서울을 잇는 아시아 젊은 미술가들의 '역동적인 목소리' 04 City_net Asia 2009 큐레이터와의 만남  05 앤디워홀 전을 앞두고 06 2009 서울미술대전_공예 다섯가지 소리 09 조각 읽는 즐거움展 10 SeMA art Cafe_조각 용어 풀이  11 2009 SeMA 신진작가 전시지원 프로그램 선정 작가 전시회 12 난지미술창작스튜디오_미술창작 스튜디오 변화상과 기능   The Collection   14 2009년 제2차 新소장작품   Education   16 2009 2009 시민미술 아카데미 전시회의 의의와 전망  17 찾아가는 미술감상교실 '문화가 힘이 되는 시대'의 좋은 모델로 자리잡아  Museum News  18 Museum News_2009 Autumn ","","http://sema.seoul.go.kr/common/imageView?FILE_PATH=%2Fdata%2Fmagazine%2F2009%2F&FILE_NM=20190114194044_ba672d44ae894fb28c9fe60282833e69_0df0711e7e8d4ff69d7500aaa934e1d0"
"000026","2009","(2009년여름호","Special Feature  02 '그림 그리는 노동자'를 자처한 다작의 화가_피에르 오귀스트 르누아르  05 SeMA art Cafe_행복을 그린 화가_르누아르展 용어 풀이   Exhibition  06 행복을 그린 화가_르누아르  08 괴물시대_Dissonant Visions展 10 미술시네마展_감각의 몽타주  12 라이트월展  13 자연생태와 문화예술이 공존하는 난지미술창작스튜디오   The Collection  14 2009년 제1차 新소장작품  Education  16 영화로 만나는 미술가들  18 찾아가는 미술감상교실  19 여름방학기간 서울시립미술관 200% 즐기기   Museum News  20 Museum News_2009 summer  ","","http://sema.seoul.go.kr/common/imageView?FILE_PATH=%2Fdata%2Fmagazine%2F2009%2F&FILE_NM=20190114194044_d8b54cbc868445909dd32c7e83d9190d_6ed534a2bc414d0693926627408f5409"
"000025","2009","2009년봄호","Exhibition       02 新오감도 Art&Synesthesia      04 2009 미술관 봄나들이_미술관 습격사건    06 서울시립미술곤 소장품기획_사진展_읽는 사진 느끼는 사진   08 제15회 공간국제판화비엔날레_서울   The Collection     10 新소장작품 2008    12 2008년 제3차 新소장작품 2008                   Education       14 2009 시민미술 아카데미 강좌일정     16 2009 찾아가는 미술감상교실 강좌일정   Special Feature       18 '미술관이 도시를 바꾼다'_가나자와 21세기 현대미술관을 다녀와서      19 도슨트 애이미 스미스와의 만남   Museum News          20  Museum NEWS_2009 spring ","","http://sema.seoul.go.kr/common/imageView?FILE_PATH=%2Fdata%2Fmagazine%2F2009%2F&FILE_NM=20190114194043_fae6c2a59e7a4acd8b807abcd48f0241_07cef3b04c4b470e91c301f731880a5b"
"000024","2008","2008년 겨울호","- Special Feature   프랑스 국립 퐁피두센터 특별전 화가들의 천국   아르카디아-인류의 영원한 꿈의 나라  - Exhibition   프랑스 국립 퐁피두센터 특별전   디디에 오탱제 프랑스 국립 현대미술관 부관장과의 만남   SeMA art Cafe - 퐁피두센터 특별전 용어풀이   진화하는 21세기 문화공간 퐁피두센터   2008서울미술대전   오래된 미래展  - The Collection   2008년 제2차 신소장품  - Education   찾아가는 미술감상교실 탐방 후기   2008년 교육프로그램을 돌아보며  - Museum News 2008 SeMA 신진작가 전시지원 프로그램 워크숍 2008 winter","","http://sema.seoul.go.kr/common/imageView?FILE_PATH=%2Fdata%2Fmagazine%2F2008%2F&FILE_NM=20190114194044_a7f680a9ee68438ea3fe272350f3042a_061807928130427890aa4785649f0ea2"
"000023","2008","2008년 가을호","미술관소식지 2008년 가을호","","http://sema.seoul.go.kr/common/imageView?FILE_PATH=%2Fdata%2Fmagazine%2F2008%2F&FILE_NM=20190114194044_4fcfb6d0f7384360a907d50a2d2133dc_c26f938cd46a47609c2b850e4e9d6726"
"000022","2008","2008년 여름호","..","","http://sema.seoul.go.kr/common/imageView?FILE_PATH=%2Fdata%2Fmagazine%2F2008%2F&FILE_NM=20190114194044_77b33d42ef5649c1851ce34b34aa033a_925fc026f95144bd9c59e49b2e105483"
"000021","2008","2008년 봄호","..","","http://sema.seoul.go.kr/common/imageView?FILE_PATH=%2Fdata%2Fmagazine%2F2008%2F&FILE_NM=20190114194044_d8cd33f1600d401b9fbb4b25b323ef9f_70baa743092741fc97e839eb48d320e1"
"000020","2007","2007년 겨울호","..","http://sema.seoul.go.kr/common/filePdfView?FILE_PATH=%2Fdata%2Fmagazine%2Fpdf%2F&FILE_NM=20190114194045_ea3b3d5b61044651b078842f2dff83d8_73acf556bf5c451d91853a0cafe44db5","http://sema.seoul.go.kr/common/imageView?FILE_PATH=%2Fdata%2Fmagazine%2F2007%2F&FILE_NM=20190114194044_3725209e976b49a297dbdd457c84c25a_4ecac10282484f1584df98a19eb23688"
"000019","2007","2007년 가을호","..","http://sema.seoul.go.kr/common/filePdfView?FILE_PATH=%2Fdata%2Fmagazine%2Fpdf%2F&FILE_NM=20190114194045_c942224bb3274ae8b784a252a3662d93_73f98d0876464fad9c893876f7ad5240","http://sema.seoul.go.kr/common/imageView?FILE_PATH=%2Fdata%2Fmagazine%2F2007%2F&FILE_NM=20190114194044_5a35adc31c914c29954a3211dfb306f5_dc7a7c726e9b45ee914c36da1c9b0fad"
"000018","2007","2007년 여름호","..","http://sema.seoul.go.kr/common/filePdfView?FILE_PATH=%2Fdata%2Fmagazine%2Fpdf%2F&FILE_NM=20190114194045_61baa081e5634cc781fcb8d0fd2d75f9_e9510f8196d3413d9be8c52f8e12aad4","http://sema.seoul.go.kr/common/imageView?FILE_PATH=%2Fdata%2Fmagazine%2F2007%2F&FILE_NM=20190114194044_1b564126a2b44cc9b4b68f1b8e8ff675_56998c0f32bb4f7fa9a4bd3ccf68ee61"
"000017","2007","2007년 봄호",".","http://sema.seoul.go.kr/common/filePdfView?FILE_PATH=%2Fdata%2Fmagazine%2Fpdf%2F&FILE_NM=20190114194045_878cb0a2df024b129e3a8a1c4c22a159_9f78c94784cf4016b7d7632b40e3c8a5","http://sema.seoul.go.kr/common/imageView?FILE_PATH=%2Fdata%2Fmagazine%2F2007%2F&FILE_NM=20190114194044_5540da61b21d4967b5d7267746764015_fd93dbd5ccd3427ca8ee4c8d33275115"
"000016","2007","2007년 신년호","..","http://sema.seoul.go.kr/common/filePdfView?FILE_PATH=%2Fdata%2Fmagazine%2Fpdf%2F&FILE_NM=20190114194044_ea204d52dc654ee1b836aeaefcb648fa_b51b8799369946588904d8a1b45c8cbc","http://sema.seoul.go.kr/common/imageView?FILE_PATH=%2Fdata%2Fmagazine%2F2007%2F&FILE_NM=20190114194043_c5ba83708031496c9f31413939062cc1_262509b494f642a98ee7c71af8710085"
"000015","2006","2006년 가을호","..","http://sema.seoul.go.kr/common/filePdfView?FILE_PATH=%2Fdata%2Fmagazine%2Fpdf%2F&FILE_NM=20190114194045_0751aff192124d70bb2e4dc6c145faaf_cdffe8550fb64e0d941e4558d529650c","http://sema.seoul.go.kr/common/imageView?FILE_PATH=%2Fdata%2Fmagazine%2F2006%2F&FILE_NM=20190114194044_d2a5ecda86f848cdb4af809778778f0a_eefb1d828c734570ad1c73b8740c3776"
"000014","2006","2006년 여름호","..","http://sema.seoul.go.kr/common/filePdfView?FILE_PATH=%2Fdata%2Fmagazine%2Fpdf%2F&FILE_NM=20190114194045_581f6056722245b9976063ca5d627f51_55f96162f226417ba7e598b77a77815e","http://sema.seoul.go.kr/common/imageView?FILE_PATH=%2Fdata%2Fmagazine%2F2006%2F&FILE_NM=20190114194044_3030383ec47e423983f3caf78f957de0_bf0363062c064dea8a6fc39dce9c9e43"
"000013","2006","2006년 봄호","..","http://sema.seoul.go.kr/common/filePdfView?FILE_PATH=%2Fdata%2Fmagazine%2Fpdf%2F&FILE_NM=20190114194045_653cd5e70cb848f081a21bdb1f7ee56a_8db41a7ffbe94604868bc08d2a39d936","http://sema.seoul.go.kr/common/imageView?FILE_PATH=%2Fdata%2Fmagazine%2F2006%2F&FILE_NM=20190114194044_350bacbb092c485a80240f597baf3924_d7d6072d9fda4e039031b95239f41918"
"000012","2006","2006년 신년호","..","http://sema.seoul.go.kr/common/filePdfView?FILE_PATH=%2Fdata%2Fmagazine%2Fpdf%2F&FILE_NM=20190114194045_9783e403fb094bf5a4c7dbfb1ca2947f_838f4cc444044d07b06fea420e5b4275","http://sema.seoul.go.kr/common/imageView?FILE_PATH=%2Fdata%2Fmagazine%2F2006%2F&FILE_NM=20190114194044_bd885ea79e6e4af08d2621442fe06da2_30f255e4a0634a5d90d1c7e5960c3029"
"000011","2005","2005년 가을호","..","http://sema.seoul.go.kr/common/filePdfView?FILE_PATH=%2Fdata%2Fmagazine%2Fpdf%2F&FILE_NM=20190114194045_f96238cd9f7846bea96173b5e8e42ccc_3d753faca56d4b1891090189c060856a","http://sema.seoul.go.kr/common/imageView?FILE_PATH=%2Fdata%2Fmagazine%2F2005%2F&FILE_NM=20190114194044_c89b588f50344bccbea2faea6082d29b_95a34e9858914938953b32e95c93a5df"
"000010","2005","2005년 여름호","..","http://sema.seoul.go.kr/common/filePdfView?FILE_PATH=%2Fdata%2Fmagazine%2Fpdf%2F&FILE_NM=20190114194044_dc44bf6b5d8f4fbcaa376c90ce456c73_f3c8b18725d7495b9eae15f317deec50","http://sema.seoul.go.kr/common/imageView?FILE_PATH=%2Fdata%2Fmagazine%2F2005%2F&FILE_NM=20190114194043_ca4ddbc36a9a4ce4ae761ac253661d8f_1e712704562e495e8144ecbc5fef228a"
"000009","2005","2005년 봄호","..","http://sema.seoul.go.kr/common/filePdfView?FILE_PATH=%2Fdata%2Fmagazine%2Fpdf%2F&FILE_NM=20190114194045_655c0219e288450abed83b101c17b786_798659a3ef9d43d19d762d1109595516","http://sema.seoul.go.kr/common/imageView?FILE_PATH=%2Fdata%2Fmagazine%2F2005%2F&FILE_NM=20190114194044_e85e583b4834430ca5f9b885039bc65f_d0e2f0661f54496fa1e19205804f1512"
"000008","2004","서울시립미술관 소식지(2004년 겨울호)","","http://sema.seoul.go.kr/common/filePdfView?FILE_PATH=%2Fdata%2Fmagazine%2Fpdf%2F&FILE_NM=20190114194045_be19e54292d247f0bf5b7a833567a717_790be76663fb4b7080f34ab2ce3c8b04","http://sema.seoul.go.kr/common/imageView?FILE_PATH=%2Fdata%2Fmagazine%2F2004%2F&FILE_NM=20190114194044_c9d66d3eea494725a28219553847fb21_e89475f07f4b477d859c820bfc550d2b"
"000007","2004","서울시립미술관 소식지(2004년 가을호)","","http://sema.seoul.go.kr/common/filePdfView?FILE_PATH=%2Fdata%2Fmagazine%2Fpdf%2F&FILE_NM=20190114194045_e66c4c46e4e74b8bb1a3bf37d72887d5_6ab5b3b613d649baa0ad534037840f4b","http://sema.seoul.go.kr/common/imageView?FILE_PATH=%2Fdata%2Fmagazine%2F2004%2F&FILE_NM=20190114194044_63615f9105354da4ad26f6e2de525ce2_46e53180e04a4eb5a79f0b4dbc0226bf"
"000006","2004","서울시립미술관 소식지 (2004년도 여름호)","","http://sema.seoul.go.kr/common/filePdfView?FILE_PATH=%2Fdata%2Fmagazine%2Fpdf%2F&FILE_NM=20190114194045_518dc3764d15447ead4743f212862038_f1ae29439b364733997f09c9cc0fcc93","http://sema.seoul.go.kr/common/imageView?FILE_PATH=%2Fdata%2Fmagazine%2F2004%2F&FILE_NM=20190114194044_4f4293c6ef2746dc9fbe3c3835ac1611_acb8342514e44fde86ef8c3e0805e7c0"
"000005","2004","서울시립미술관 소식지 (2004년도 봄호)","","http://sema.seoul.go.kr/common/filePdfView?FILE_PATH=%2Fdata%2Fmagazine%2Fpdf%2F&FILE_NM=20190114194045_9ec70a3c838245efa8fc180b836fd76a_59232a418b484ba7b59d9cfec08eb4aa","http://sema.seoul.go.kr/common/imageView?FILE_PATH=%2Fdata%2Fmagazine%2F2004%2F&FILE_NM=20190114194044_aed0460ed2b740a8bb806ed403e4e8f0_28f155b98aec4f7da48bfe1d3037d7c7"
"000004","2003","서울시립미술관 소식지 (2003년도 겨울호)","","http://sema.seoul.go.kr/common/filePdfView?FILE_PATH=%2Fdata%2Fmagazine%2Fpdf%2F&FILE_NM=20190114194045_0094883e58c44b678e48bb261be285a6_3f8c42b9f84c4fdfb834ffca78f52d5d","http://sema.seoul.go.kr/common/imageView?FILE_PATH=%2Fdata%2Fmagazine%2F2003%2F&FILE_NM=20190114194044_b4e4b81ddb8f4e9aa687402a3a465e08_58f41437cada4359808ae5598cc62b01"
"000003","2003","서울시립미술관 소식지 (2003년도 가을호)","","http://sema.seoul.go.kr/common/filePdfView?FILE_PATH=%2Fdata%2Fmagazine%2Fpdf%2F&FILE_NM=20190114194045_ba5183ce79a640d6bb491ee34eda0bab_1c2a04fa99d64592885f56d41d44b271","http://sema.seoul.go.kr/common/imageView?FILE_PATH=%2Fdata%2Fmagazine%2F2003%2F&FILE_NM=20190114194044_68eb199b84bf4cbe94786335d6edd34a_78c7482043d646829c20537e8228785f"
"000002","2003","서울시립미술관 소식지 (2003년도 여름호)","","http://sema.seoul.go.kr/common/filePdfView?FILE_PATH=%2Fdata%2Fmagazine%2Fpdf%2F&FILE_NM=20190114194045_7b003106e0744d5593a24be40f19123a_b5a2d42c9f6b48758347e3cc49e71b28","http://sema.seoul.go.kr/common/imageView?FILE_PATH=%2Fdata%2Fmagazine%2F2003%2F&FILE_NM=20190114194044_66a223e94cd74efc930cbb9493acc21f_bb7491f837864c36967ce9b3b1799c38"
"000001","2003","서울시립미술관 소식지 (2003년도 봄호)","","http://sema.seoul.go.kr/common/filePdfView?FILE_PATH=%2Fdata%2Fmagazine%2Fpdf%2F&FILE_NM=20190114194045_487976238a754443836967e96e7806bf_78b49e33a4734d5abce828bc24126c04","http://sema.seoul.go.kr/common/imageView?FILE_PATH=%2Fdata%2Fmagazine%2F2003%2F&FILE_NM=20190114194044_9aa33b501a344338818d95a16d044f3d_fdf316f17e6947bebb6388d4152560ec"