"서비스구분","서비스ID","대분류명","소분류명","서비스상태","서비스명","결제방법","장소명","서비스대상","바로가기URL","장소X좌표","장소Y좌표","서비스개시시작일시","서비스개시종료일시","접수시작일시","접수종료일시","지역명"
"자체","S200107162807369052","시설대관","주민사랑방","접수중","구로구 개봉1동 제1자치회관 2층 주민자치사랑방 대관","무료","개봉1동 제1자치회관  ","제한없음(서울시 관련 시민(상세설명 참고))","http://yeyak.seoul.go.kr/reservation/view.web?rsvsvcid=S200107162807369052","37.50219212188501","126.84712102788244","2020-01-07 00:00:00.0","2020-12-31 00:00:00.0","2020-01-07 00:00:00.0","2020-12-31 23:59:00.0","구로구"
"자체","S200107163026389633","시설대관","다목적실","접수중","구로구 개봉1동 제1자치회관 3층 다목적실 대관","무료","개봉1동 제1자치회관  ","제한없음(서울시 관련 시민(상세설명 참고))","http://yeyak.seoul.go.kr/reservation/view.web?rsvsvcid=S200107163026389633","37.50219212188501","126.84712102788244","2020-01-07 00:00:00.0","2020-12-31 00:00:00.0","2020-01-07 00:00:00.0","2020-12-31 23:59:00.0","구로구"
"자체","S200107153848834475","시설대관","주민사랑방","접수중","구로구 구로3동 자치회관 4층 3강의실","무료","구로3동주민센터","제한없음","http://yeyak.seoul.go.kr/reservation/view.web?rsvsvcid=S200107153848834475","37.487348304030654","126.89033063276314","2020-01-07 00:00:00.0","2020-12-31 00:00:00.0","2020-01-07 00:00:00.0","2020-12-31 23:59:00.0","구로구"
"자체","S200107154133690311","시설대관","강의실","접수중","구로구 구로3동 자치회관 3층 2강의실","무료","구로3동주민센터","제한없음","http://yeyak.seoul.go.kr/reservation/view.web?rsvsvcid=S200107154133690311","37.487348304030654","126.89033063276314","2020-01-07 00:00:00.0","2020-12-31 00:00:00.0","2020-01-07 00:00:00.0","2020-12-31 23:59:00.0","구로구"
"자체","S200107154415912746","시설대관","강의실","접수중","구로구 구로3동 자치회관3층 1강의실","무료","구로3동주민센터","제한없음","http://yeyak.seoul.go.kr/reservation/view.web?rsvsvcid=S200107154415912746","37.487348304030654","126.89033063276314","2020-01-07 00:00:00.0","2020-12-31 00:00:00.0","2020-01-07 00:00:00.0","2020-12-31 00:00:00.0","구로구"
"자체","S200107101043267022","시설대관","다목적실","접수중","구로구 구로2동 주민센터 3층 다목적실 대관","무료","구로구>구로2동 주민센터  ","제한없음","http://yeyak.seoul.go.kr/reservation/view.web?rsvsvcid=S200107101043267022","37.491320515516136","126.88340002194258","2020-01-07 00:00:00.0","2020-12-31 00:00:00.0","2020-01-07 00:00:00.0","2020-12-31 23:59:00.0","구로구"
"자체","S200107101507800213","시설대관","다목적실","접수중","구로구 구로2동 주민센터 3층 프로그램실 대관","무료","구로구>구로2동 주민센터  ","제한없음","http://yeyak.seoul.go.kr/reservation/view.web?rsvsvcid=S200107101507800213","37.491320515516136","126.88340002194258","2020-01-07 00:00:00.0","2020-12-31 00:00:00.0","2020-01-07 00:00:00.0","2020-12-31 23:59:00.0","구로구"
"자체","S200122182224051666","시설대관","강당","접수중","(토일)(주말) 구로소방서 강당 대관","유료","구로소방서 강당","제한없음","http://yeyak.seoul.go.kr/reservation/view.web?rsvsvcid=S200122182224051666","","","2020-01-01 00:00:00.0","2020-12-31 00:00:00.0","2020-01-01 09:00:00.0","2020-12-31 18:00:00.0","구로구"
"자체","S200103162916517469","시설대관","다목적실","예약일시중지","구일마을꿈터 프로그램실2","무료","구일마을꿈터","제한없음","http://yeyak.seoul.go.kr/reservation/view.web?rsvsvcid=S200103162916517469","37.4957442913","126.8744460067","2020-01-06 00:00:00.0","2020-12-31 00:00:00.0","2020-01-06 00:00:00.0","2020-12-31 00:00:00.0","구로구"
"자체","S200106162855934670","시설대관","다목적실","예약일시중지","구일마을꿈터 프로그램실1","무료","구일마을꿈터","제한없음","http://yeyak.seoul.go.kr/reservation/view.web?rsvsvcid=S200106162855934670","37.4957442913","126.8744460067","2020-01-06 00:00:00.0","2020-12-31 00:00:00.0","2020-01-06 00:00:00.0","2020-12-31 00:00:00.0","구로구"
"자체","S200107162019247015","시설대관","회의실","예약일시중지","구로구 고척2동 주민센터 2층 회의실 대관","무료","고척2동 주민센터  ","제한없음(서울시 관련 시민(상세설명 참고))","http://yeyak.seoul.go.kr/reservation/view.web?rsvsvcid=S200107162019247015","37.50669343203917","126.85860729439166","2020-01-07 00:00:00.0","2020-12-31 00:00:00.0","2020-01-07 00:00:00.0","2020-12-31 23:59:00.0","구로구"
"자체","S200107162217564989","시설대관","다목적실","예약일시중지","구로구 고척2동 주민센터 3층 2다목적실 대관","무료","고척2동 주민센터  ","제한없음(서울시 관련 시민(상세설명 참고))","http://yeyak.seoul.go.kr/reservation/view.web?rsvsvcid=S200107162217564989","37.50669343203917","126.85860729439166","2020-01-07 00:00:00.0","2020-12-31 00:00:00.0","2020-01-07 00:00:00.0","2020-12-31 23:59:00.0","구로구"
"자체","S200107162416285993","시설대관","주민사랑방","예약일시중지","구로구 고척2동 주민센터 3층 주민사랑방 대관","무료","고척2동 주민센터  ","제한없음(서울시 관련 시민(상세설명 참고))","http://yeyak.seoul.go.kr/reservation/view.web?rsvsvcid=S200107162416285993","37.50669343203917","126.85860729439166","2020-01-07 00:00:00.0","2020-12-31 00:00:00.0","2020-01-07 00:00:00.0","2020-12-31 23:59:00.0","구로구"
"자체","S200107161226047526","시설대관","주민사랑방","접수중","구로구 고척1동 주민센터 2층 소통마루카페 대관","무료","고척1동 주민센터","제한없음(서울시민(상세설명 참고))","http://yeyak.seoul.go.kr/reservation/view.web?rsvsvcid=S200107161226047526","37.5004057461993","126.86278991600314","2020-01-07 00:00:00.0","2020-12-31 00:00:00.0","2020-01-07 00:00:00.0","2020-12-31 23:59:00.0","구로구"
"자체","S200107161444375344","시설대관","강의실","접수중","구로구 고척1동 주민센터 3층 다기능방(강의실) 대관","무료","고척1동 주민센터","제한없음(서울시민(상세설명 참고))","http://yeyak.seoul.go.kr/reservation/view.web?rsvsvcid=S200107161444375344","37.5004057461993","126.86278991600314","2020-01-07 00:00:00.0","2020-12-31 00:00:00.0","2020-01-07 00:00:00.0","2020-12-31 23:59:00.0","구로구"
"자체","S200107161709919163","시설대관","다목적실","접수중","구로구 고척1동 주민센터 지하 다목적실 대관","무료","고척1동 주민센터","제한없음","http://yeyak.seoul.go.kr/reservation/view.web?rsvsvcid=S200107161709919163","37.5004057461993","126.86278991600314","2020-01-07 00:00:00.0","2020-12-31 00:00:00.0","2020-01-07 00:00:00.0","2020-12-31 00:00:00.0","구로구"
"자체","S191125190835349586","시설대관","간이공연장","접수중","2020년도 고척스카이돔 야외 공연장(평일주간)","유료","고척스카이돔","제한없음","http://yeyak.seoul.go.kr/reservation/view.web?rsvsvcid=S191125190835349586","","","2019-12-01 00:00:00.0","2020-12-31 00:00:00.0","2019-12-01 09:00:00.0","2020-12-31 23:59:00.0","구로구"
"자체","S191125191626061588","시설대관","간이공연장","접수중","2020년도 고척스카이돔 야외 공연장(평일야간)","유료","고척스카이돔","제한없음","http://yeyak.seoul.go.kr/reservation/view.web?rsvsvcid=S191125191626061588","","","2019-12-01 00:00:00.0","2020-12-31 00:00:00.0","2019-12-01 09:00:00.0","2020-12-31 23:59:00.0","구로구"
"자체","S191125192450446560","시설대관","간이공연장","접수중","2020년도 고척스카이돔 야외 공연장(휴일주간)","유료","고척스카이돔","제한없음","http://yeyak.seoul.go.kr/reservation/view.web?rsvsvcid=S191125192450446560","","","2019-12-01 00:00:00.0","2020-12-31 00:00:00.0","2019-12-01 09:00:00.0","2020-12-31 23:59:00.0","구로구"
"자체","S191125194628732082","시설대관","간이공연장","접수중","2020년도 고척스카이돔 야외 공연장(휴일야간)","유료","고척스카이돔","제한없음","http://yeyak.seoul.go.kr/reservation/view.web?rsvsvcid=S191125194628732082","","","2019-12-01 00:00:00.0","2020-12-31 00:00:00.0","2019-12-01 09:00:00.0","2020-12-31 23:59:00.0","구로구"
"자체","S200107101835805907","시설대관","회의실","예약일시중지","구로구 구로1동 주민센터 2층 회의실 ","무료","구로1동 주민센터 ","제한없음(서울시 관련 시민(상세설명 참고))","http://yeyak.seoul.go.kr/reservation/view.web?rsvsvcid=S200107101835805907","37.493039088060335","126.87578939121913","2020-01-07 00:00:00.0","2020-12-31 00:00:00.0","2020-01-07 00:00:00.0","2020-12-31 23:59:00.0","구로구"
"자체","S200107170853015498","시설대관","다목적실","접수중","구로구 수궁동 주민센터 2층 다기능실 대관","무료","수궁동 주민센터 ","제한없음(서울시 관련 시민(상세설명 참고))","http://yeyak.seoul.go.kr/reservation/view.web?rsvsvcid=S200107170853015498","37.4938924047564","126.83147858768357","2020-01-07 00:00:00.0","2020-12-31 00:00:00.0","2020-01-07 00:00:00.0","2020-12-31 00:30:00.0","구로구"
"자체","S200107171808844802","시설대관","강의실","접수중","구로구 수궁동 주민센터 지하강의실 대관","무료","수궁동 주민센터 ","제한없음","http://yeyak.seoul.go.kr/reservation/view.web?rsvsvcid=S200107171808844802","37.4938924047564","126.83147858768357","2020-01-07 00:00:00.0","2020-12-31 00:00:00.0","2020-01-07 00:00:00.0","2020-12-31 00:00:00.0","구로구"
"자체","S200106163413169720","시설대관","강당","예약일시중지","천왕역 버들마을활력소 다목적강당 ","유료(요금안내문의)","천왕역버들마을활력소  ","제한없음","http://yeyak.seoul.go.kr/reservation/view.web?rsvsvcid=S200106163413169720","37.4868205903","126.8387128395","2020-01-06 00:00:00.0","2020-12-31 00:00:00.0","2020-01-06 00:00:00.0","2020-12-31 00:00:00.0","구로구"
"자체","S200106171802711919","시설대관","다목적실","예약일시중지","천왕역 버들마을활력소 개인연습실","유료(요금안내문의)","천왕역버들마을활력소  ","제한없음","http://yeyak.seoul.go.kr/reservation/view.web?rsvsvcid=S200106171802711919","37.4868205903","126.8387128395","2020-01-06 00:00:00.0","2020-12-31 00:00:00.0","2020-01-06 00:00:00.0","2020-12-31 00:00:00.0","구로구"
"자체","S200106172553205100","시설대관","다목적실","예약일시중지","천왕역 버들마을활력소 동아리연습실","유료(요금안내문의)","천왕역버들마을활력소  ","제한없음","http://yeyak.seoul.go.kr/reservation/view.web?rsvsvcid=S200106172553205100","37.4868205903","126.8387128395","2020-01-06 00:00:00.0","2020-12-31 00:00:00.0","2020-01-06 00:00:00.0","2020-12-31 00:00:00.0","구로구"
"자체","S200106172915844475","시설대관","주민사랑방","예약일시중지","천왕역 버들마을활력소 주민모임방1","유료(요금안내문의)","천왕역버들마을활력소  ","제한없음","http://yeyak.seoul.go.kr/reservation/view.web?rsvsvcid=S200106172915844475","37.4868205903","126.8387128395","2020-01-06 00:00:00.0","2020-12-31 00:00:00.0","2020-01-06 00:00:00.0","2020-12-31 00:00:00.0","구로구"
"자체","S200106173119037610","시설대관","주민사랑방","예약일시중지","천왕역 버들마을활력소 주민모임방2","유료(요금안내문의)","천왕역버들마을활력소  ","제한없음","http://yeyak.seoul.go.kr/reservation/view.web?rsvsvcid=S200106173119037610","37.4868205903","126.8387128395","2020-01-06 00:00:00.0","2020-12-31 00:00:00.0","2020-01-06 00:00:00.0","2020-12-31 00:00:00.0","구로구"
"자체","S200106173317890006","시설대관","다목적실","예약일시중지","천왕역 버들마을활력소 주민모임방3","유료(요금안내문의)","천왕역버들마을활력소  ","제한없음","http://yeyak.seoul.go.kr/reservation/view.web?rsvsvcid=S200106173317890006","37.4868205903","126.8387128395","2020-01-06 00:00:00.0","2020-12-31 00:00:00.0","2020-01-06 00:00:00.0","2020-12-31 00:00:00.0","구로구"
"자체","S200106173604341983","시설대관","강의실","예약일시중지","천왕역 버들마을활력소 프로그램실1","유료(요금안내문의)","천왕역버들마을활력소  ","제한없음","http://yeyak.seoul.go.kr/reservation/view.web?rsvsvcid=S200106173604341983","37.4868205903","126.8387128395","2020-01-06 00:00:00.0","2020-12-31 00:00:00.0","2020-01-06 00:00:00.0","2020-12-31 00:00:00.0","구로구"
"자체","S200106173734772961","시설대관","강의실","예약일시중지","천왕역 버들마을활력소 프로그램실2","유료(요금안내문의)","천왕역버들마을활력소  ","제한없음","http://yeyak.seoul.go.kr/reservation/view.web?rsvsvcid=S200106173734772961","37.4868205903","126.8387128395","2020-01-06 00:00:00.0","2020-12-31 00:00:00.0","2020-01-06 00:00:00.0","2020-12-31 00:00:00.0","구로구"
"자체","S200106173911163507","시설대관","강의실","예약일시중지","천왕역 버들마을활력소 프로그램실3","유료(요금안내문의)","천왕역버들마을활력소  ","제한없음","http://yeyak.seoul.go.kr/reservation/view.web?rsvsvcid=S200106173911163507","37.4868205903","126.8387128395","2020-01-06 00:00:00.0","2020-12-31 00:00:00.0","2020-01-06 00:00:00.0","2020-12-31 00:00:00.0","구로구"
"자체","S200103155902913883","시설대관","주민사랑방","예약일시중지","오류골 사랑방 소모임방","무료","오류골 사랑방","제한없음","http://yeyak.seoul.go.kr/reservation/view.web?rsvsvcid=S200103155902913883","37.495357487","126.8460357988","2020-01-03 00:00:00.0","2020-12-31 00:00:00.0","2020-01-03 00:00:00.0","2020-12-31 00:00:00.0","구로구"
"자체","S200107092442841151","시설대관","강의실","접수중","구로구 신도림동 주민센터 2층 문화교실","무료","신도림동 주민센터  ","제한없음","http://yeyak.seoul.go.kr/reservation/view.web?rsvsvcid=S200107092442841151","37.507780891325346","126.88059665654018","2020-01-07 00:00:00.0","2020-12-31 00:00:00.0","2020-01-07 00:00:00.0","2020-12-31 00:00:00.0","구로구"
"자체","S200107092828080476","시설대관","주민사랑방","접수중","구로구 신도림동 주민센터 하모니홀 ","무료","신도림동 주민센터  ","제한없음","http://yeyak.seoul.go.kr/reservation/view.web?rsvsvcid=S200107092828080476","37.507780891325346","126.88059665654018","2020-01-07 00:00:00.0","2020-12-31 00:00:00.0","2020-01-07 00:00:00.0","2020-12-31 00:00:00.0","구로구"
"자체","S200107163610182501","시설대관","주민사랑방","예약일시중지","구로구 개봉3동 1층 주민사랑방","무료","개봉3동 주민센터","제한없음","http://yeyak.seoul.go.kr/reservation/view.web?rsvsvcid=S200107163610182501","37.48599332391027","126.85383864690752","2020-01-07 00:00:00.0","2020-12-31 00:00:00.0","2020-01-07 00:00:00.0","2020-12-31 23:59:00.0","구로구"
"자체","S200107163809750979","시설대관","다목적실","예약일시중지","구로구 개봉3동 주민센터 3층 다목적실 대관","무료","개봉3동 주민센터","제한없음(서울시 관련 시민(상세설명 참고))","http://yeyak.seoul.go.kr/reservation/view.web?rsvsvcid=S200107163809750979","37.48599332391027","126.85383864690752","2020-01-07 00:00:00.0","2020-12-31 00:00:00.0","2020-01-07 00:00:00.0","2020-12-31 23:59:00.0","구로구"
"자체","S200107165011442645","시설대관","다목적실","예약일시중지","구로구 개봉3동 주민센터 지층 다목적실 대관","무료","개봉3동 주민센터","제한없음","http://yeyak.seoul.go.kr/reservation/view.web?rsvsvcid=S200107165011442645","37.48599332391027","126.85383864690752","2020-01-07 00:00:00.0","2020-12-31 00:00:00.0","2020-01-07 00:00:00.0","2020-12-31 23:59:00.0","구로구"
"자체","S200107160618352362","시설대관","강의실","접수중","구로구 구로5동 주민센터 2층 문화강좌실 대관","무료","구로5동 주민센터 ","제한없음","http://yeyak.seoul.go.kr/reservation/view.web?rsvsvcid=S200107160618352362","37.50010202984654","126.88933941109081","2020-01-07 00:00:00.0","2020-12-31 00:00:00.0","2020-01-07 00:00:00.0","2020-12-31 00:00:00.0","구로구"
"자체","S200107165348880721","시설대관","강의실","접수중","구로구 오류1동 주민센터 임시청사 지하교육장 대관","무료","오류1동 주민센터 임시청사","제한없음(서울시 관련 시민(상세설명 참고))","http://yeyak.seoul.go.kr/reservation/view.web?rsvsvcid=S200107165348880721","37.4973243152","126.8452944436","2020-01-07 00:00:00.0","2020-12-31 00:00:00.0","2020-01-07 00:00:00.0","2020-12-31 23:59:00.0","구로구"
"자체","S200107154657262797","시설대관","주민사랑방","예약일시중지","구로구 구로4동 자치회관 1층 사랑방 대관","무료","구로4동 자치회관  ","제한없음(서울시 관련 시민(상세설명 참고))","http://yeyak.seoul.go.kr/reservation/view.web?rsvsvcid=S200107154657262797","37.48565451083074","126.88661995766813","2020-01-07 00:00:00.0","2020-12-31 00:00:00.0","2020-01-07 00:00:00.0","2020-12-31 23:59:00.0","구로구"
"자체","S200107154908297633","시설대관","다목적실","예약일시중지","구로구 구로4동 자치회관 2층 다목적실","무료","구로4동 자치회관  ","제한없음(서울시 관련 시민(상세설명 참고))","http://yeyak.seoul.go.kr/reservation/view.web?rsvsvcid=S200107154908297633","37.48565451083074","126.88661995766813","2020-01-07 00:00:00.0","2020-12-31 00:00:00.0","2020-01-07 00:00:00.0","2020-12-31 23:59:00.0","구로구"
"자체","S200107165828442801","시설대관","다목적실","접수중","구로구 오류2동 주민센터 2층 다기능실 대관","무료","오류2동 주민센터 ","제한없음(서울시 관련 시민(상세설명 참고))","http://yeyak.seoul.go.kr/reservation/view.web?rsvsvcid=S200107165828442801","37.48881470838637","126.83951362939702","2020-01-07 00:00:00.0","2020-12-31 00:00:00.0","2020-01-07 00:00:00.0","2020-12-31 23:59:00.0","구로구"
"자체","S200107170529811829","시설대관","다목적실","접수중","구로구 오류2동 주민센터 3층 다기능실 대관","무료","오류2동 주민센터 ","제한없음(서울시 관련 시민(상세설명 참고))","http://yeyak.seoul.go.kr/reservation/view.web?rsvsvcid=S200107170529811829","37.48881470838637","126.83951362939702","2020-01-07 00:00:00.0","2020-12-31 00:00:00.0","2020-01-07 00:00:00.0","2020-12-31 23:59:00.0","구로구"